{"count": 830, "next": "https://helix-tools-api.idmcdb.org/external-api/gidd/conflicts/?client_id=HDX00AKEYJUl17&client_id=HDX00AKEYJUl17&format=json&limit=100&offset=600", "previous": "https://helix-tools-api.idmcdb.org/external-api/gidd/conflicts/?client_id=HDX00AKEYJUl17&client_id=HDX00AKEYJUl17&format=json&limit=100&offset=400", "results": [{"iso3": "PNG", "country_name": "Papua New Guinea", "year": 2017, "new_displacement": null, "new_displacement_rounded": null, "total_displacement_rounded": 12000, "total_displacement": 12423}, {"iso3": "PER", "country_name": "Peru", "year": 2017, "new_displacement": null, "new_displacement_rounded": null, "total_displacement_rounded": 59000, "total_displacement": 59302}, {"iso3": "PHL", "country_name": "Philippines", "year": 2017, "new_displacement": 644811, "new_displacement_rounded": 645000, "total_displacement_rounded": 445000, "total_displacement": 445268}, {"iso3": "RUS", "country_name": "Russia", "year": 2017, "new_displacement": null, "new_displacement_rounded": null, "total_displacement_rounded": 19000, "total_displacement": 19327}, {"iso3": "SEN", "country_name": "Senegal", "year": 2017, "new_displacement": null, "new_displacement_rounded": null, "total_displacement_rounded": 22000, "total_displacement": 21540}, {"iso3": "SOM", "country_name": "Somalia", "year": 2017, "new_displacement": 387558, "new_displacement_rounded": 388000, "total_displacement_rounded": 825000, "total_displacement": 824551}, {"iso3": "SSD", "country_name": "South Sudan", "year": 2017, "new_displacement": 856769, "new_displacement_rounded": 857000, "total_displacement_rounded": 1899000, "total_displacement": 1898699}, {"iso3": "LKA", "country_name": "Sri Lanka", "year": 2017, "new_displacement": null, "new_displacement_rounded": null, "total_displacement_rounded": 42000, "total_displacement": 41938}, {"iso3": "SDN", "country_name": "Sudan", "year": 2017, "new_displacement": 17218, "new_displacement_rounded": 17000, "total_displacement_rounded": 2072000, "total_displacement": 2071956}, {"iso3": "SYR", "country_name": "Syria", "year": 2017, "new_displacement": 2911272, "new_displacement_rounded": 2911000, "total_displacement_rounded": 6784000, "total_displacement": 6784127}, {"iso3": "THA", "country_name": "Thailand", "year": 2017, "new_displacement": null, "new_displacement_rounded": null, "total_displacement_rounded": 41000, "total_displacement": 40584}, {"iso3": "TGO", "country_name": "Togo", "year": 2017, "new_displacement": 2655, "new_displacement_rounded": 2700, "total_displacement_rounded": null, "total_displacement": null}, {"iso3": "TUR", "country_name": "T\u00fcrkiye", "year": 2017, "new_displacement": null, "new_displacement_rounded": null, "total_displacement_rounded": 1113000, "total_displacement": 1112954}, {"iso3": "UGA", "country_name": "Uganda", "year": 2017, "new_displacement": 1343, "new_displacement_rounded": 1300, "total_displacement_rounded": 24000, "total_displacement": 24343}, {"iso3": "UKR", "country_name": "Ukraine", "year": 2017, "new_displacement": 21415, "new_displacement_rounded": 21000, "total_displacement_rounded": 800000, "total_displacement": 800000}, {"iso3": "YEM", "country_name": "Yemen", "year": 2017, "new_displacement": 160178, "new_displacement_rounded": 160000, "total_displacement_rounded": 2014000, "total_displacement": 2014026}, {"iso3": "AB9", "country_name": "Abyei Area", "year": 2018, "new_displacement": 150, "new_displacement_rounded": 150, "total_displacement_rounded": 31000, "total_displacement": 31024}, {"iso3": "AFG", "country_name": "Afghanistan", "year": 2018, "new_displacement": 371779, "new_displacement_rounded": 372000, "total_displacement_rounded": 2598000, "total_displacement": 2597897}, {"iso3": "AZE", "country_name": "Azerbaijan", "year": 2018, "new_displacement": null, "new_displacement_rounded": null, "total_displacement_rounded": 644000, "total_displacement": 643625}, {"iso3": "BGD", "country_name": "Bangladesh", "year": 2018, "new_displacement": 300, "new_displacement_rounded": 300, "total_displacement_rounded": 426000, "total_displacement": 426070}, {"iso3": "BEN", "country_name": "Benin", "year": 2018, "new_displacement": 3494, "new_displacement_rounded": 3500, "total_displacement_rounded": 3500, "total_displacement": 3494}, {"iso3": "BIH", "country_name": "Bosnia and Herzegovina", "year": 2018, "new_displacement": null, "new_displacement_rounded": null, "total_displacement_rounded": 99000, "total_displacement": 98574}, {"iso3": "BFA", "country_name": "Burkina Faso", "year": 2018, "new_displacement": 42118, "new_displacement_rounded": 42000, "total_displacement_rounded": 47000, "total_displacement": 47029}, {"iso3": "BDI", "country_name": "Burundi", "year": 2018, "new_displacement": 5054, "new_displacement_rounded": 5100, "total_displacement_rounded": 32000, "total_displacement": 31908}, {"iso3": "CMR", "country_name": "Cameroon", "year": 2018, "new_displacement": 458607, "new_displacement_rounded": 459000, "total_displacement_rounded": 668000, "total_displacement": 667982}, {"iso3": "CAF", "country_name": "Central African Republic", "year": 2018, "new_displacement": 509687, "new_displacement_rounded": 510000, "total_displacement_rounded": 641000, "total_displacement": 640969}, {"iso3": "TCD", "country_name": "Chad", "year": 2018, "new_displacement": null, "new_displacement_rounded": null, "total_displacement_rounded": 90000, "total_displacement": 89863}, {"iso3": "COL", "country_name": "Colombia", "year": 2018, "new_displacement": 145287, "new_displacement_rounded": 145000, "total_displacement_rounded": 5761000, "total_displacement": 5760741}, {"iso3": "COG", "country_name": "Congo", "year": 2018, "new_displacement": null, "new_displacement_rounded": null, "total_displacement_rounded": 107000, "total_displacement": 107383}, {"iso3": "CIV", "country_name": "C\u00f4te d'Ivoire", "year": 2018, "new_displacement": 700, "new_displacement_rounded": 700, "total_displacement_rounded": 302000, "total_displacement": 302405}, {"iso3": "CYP", "country_name": "Cyprus", "year": 2018, "new_displacement": null, "new_displacement_rounded": null, "total_displacement_rounded": 228000, "total_displacement": 228125}, {"iso3": "COD", "country_name": "Dem. Rep. Congo", "year": 2018, "new_displacement": 1839616, "new_displacement_rounded": 1840000, "total_displacement_rounded": 3081000, "total_displacement": 3081387}, {"iso3": "ECU", "country_name": "Ecuador", "year": 2018, "new_displacement": 423, "new_displacement_rounded": 420, "total_displacement_rounded": null, "total_displacement": null}, {"iso3": "EGY", "country_name": "Egypt", "year": 2018, "new_displacement": 15170, "new_displacement_rounded": 15000, "total_displacement_rounded": 3200, "total_displacement": 3181}, {"iso3": "SLV", "country_name": "El Salvador", "year": 2018, "new_displacement": 246311, "new_displacement_rounded": 246000, "total_displacement_rounded": null, "total_displacement": null}, {"iso3": "ETH", "country_name": "Ethiopia", "year": 2018, "new_displacement": 2894841, "new_displacement_rounded": 2895000, "total_displacement_rounded": 2137000, "total_displacement": 2137422}, {"iso3": "GEO", "country_name": "Georgia", "year": 2018, "new_displacement": null, "new_displacement_rounded": null, "total_displacement_rounded": 293000, "total_displacement": 293103}, {"iso3": "GHA", "country_name": "Ghana", "year": 2018, "new_displacement": 5000, "new_displacement_rounded": 5000, "total_displacement_rounded": 5000, "total_displacement": 5000}, {"iso3": "GTM", "country_name": "Guatemala", "year": 2018, "new_displacement": null, "new_displacement_rounded": null, "total_displacement_rounded": 242000, "total_displacement": 242386}, {"iso3": "HND", "country_name": "Honduras", "year": 2018, "new_displacement": 950, "new_displacement_rounded": 950, "total_displacement_rounded": 190000, "total_displacement": 190000}, {"iso3": "IND", "country_name": "India", "year": 2018, "new_displacement": 169313, "new_displacement_rounded": 169000, "total_displacement_rounded": 479000, "total_displacement": 479446}, {"iso3": "IDN", "country_name": "Indonesia", "year": 2018, "new_displacement": 4497, "new_displacement_rounded": 4500, "total_displacement_rounded": 13000, "total_displacement": 13352}, {"iso3": "IRQ", "country_name": "Iraq", "year": 2018, "new_displacement": 150222, "new_displacement_rounded": 150000, "total_displacement_rounded": 1962000, "total_displacement": 1961934}, {"iso3": "ISR", "country_name": "Israel", "year": 2018, "new_displacement": 2114, "new_displacement_rounded": 2100, "total_displacement_rounded": null, "total_displacement": null}, {"iso3": "KEN", "country_name": "Kenya", "year": 2018, "new_displacement": 9978, "new_displacement_rounded": 10000, "total_displacement_rounded": 162000, "total_displacement": 161843}, {"iso3": "XKX", "country_name": "Kosovo", "year": 2018, "new_displacement": null, "new_displacement_rounded": null, "total_displacement_rounded": 16000, "total_displacement": 16209}, {"iso3": "LBN", "country_name": "Lebanon", "year": 2018, "new_displacement": null, "new_displacement_rounded": null, "total_displacement_rounded": 11000, "total_displacement": 10540}, {"iso3": "LBY", "country_name": "Libya", "year": 2018, "new_displacement": 70305, "new_displacement_rounded": 70000, "total_displacement_rounded": 187000, "total_displacement": 187159}, {"iso3": "MDG", "country_name": "Madagascar", "year": 2018, "new_displacement": 1668, "new_displacement_rounded": 1700, "total_displacement_rounded": 2000, "total_displacement": 1982}, {"iso3": "MLI", "country_name": "Mali", "year": 2018, "new_displacement": 125917, "new_displacement_rounded": 126000, "total_displacement_rounded": 120000, "total_displacement": 120298}, {"iso3": "MEX", "country_name": "Mexico", "year": 2018, "new_displacement": 11491, "new_displacement_rounded": 11000, "total_displacement_rounded": 341000, "total_displacement": 341408}, {"iso3": "MOZ", "country_name": "Mozambique", "year": 2018, "new_displacement": 3791, "new_displacement_rounded": 3800, "total_displacement_rounded": 14000, "total_displacement": 13876}, {"iso3": "MMR", "country_name": "Myanmar", "year": 2018, "new_displacement": 42434, "new_displacement_rounded": 42000, "total_displacement_rounded": 401000, "total_displacement": 401168}, {"iso3": "NER", "country_name": "Niger", "year": 2018, "new_displacement": 52000, "new_displacement_rounded": 52000, "total_displacement_rounded": 156000, "total_displacement": 156000}, {"iso3": "NGA", "country_name": "Nigeria", "year": 2018, "new_displacement": 541464, "new_displacement_rounded": 541000, "total_displacement_rounded": 2243000, "total_displacement": 2242664}, {"iso3": "MKD", "country_name": "North Macedonia", "year": 2018, "new_displacement": null, "new_displacement_rounded": null, "total_displacement_rounded": 140, "total_displacement": 140}, {"iso3": "PAK", "country_name": "Pakistan", "year": 2018, "new_displacement": 1832, "new_displacement_rounded": 1800, "total_displacement_rounded": 119000, "total_displacement": 118996}, {"iso3": "PSE", "country_name": "Palestine", "year": 2018, "new_displacement": 490, "new_displacement_rounded": 490, "total_displacement_rounded": 238000, "total_displacement": 237556}, {"iso3": "PNG", "country_name": "Papua New Guinea", "year": 2018, "new_displacement": 360, "new_displacement_rounded": 360, "total_displacement_rounded": 12000, "total_displacement": 12440}, {"iso3": "PER", "country_name": "Peru", "year": 2018, "new_displacement": null, "new_displacement_rounded": null, "total_displacement_rounded": 59000, "total_displacement": 59302}, {"iso3": "PHL", "country_name": "Philippines", "year": 2018, "new_displacement": 188314, "new_displacement_rounded": 188000, "total_displacement_rounded": 301000, "total_displacement": 300806}, {"iso3": "RUS", "country_name": "Russia", "year": 2018, "new_displacement": null, "new_displacement_rounded": null, "total_displacement_rounded": 2300, "total_displacement": 2279}, {"iso3": "SEN", "country_name": "Senegal", "year": 2018, "new_displacement": null, "new_displacement_rounded": null, "total_displacement_rounded": 18000, "total_displacement": 18384}, {"iso3": "SLE", "country_name": "Sierra Leone", "year": 2018, "new_displacement": 3000, "new_displacement_rounded": 3000, "total_displacement_rounded": 3000, "total_displacement": 3000}, {"iso3": "SOM", "country_name": "Somalia", "year": 2018, "new_displacement": 578170, "new_displacement_rounded": 578000, "total_displacement_rounded": 2648000, "total_displacement": 2648000}, {"iso3": "SSD", "country_name": "South Sudan", "year": 2018, "new_displacement": 321303, "new_displacement_rounded": 321000, "total_displacement_rounded": 1869000, "total_displacement": 1868899}, {"iso3": "LKA", "country_name": "Sri Lanka", "year": 2018, "new_displacement": 1138, "new_displacement_rounded": 1100, "total_displacement_rounded": 37000, "total_displacement": 37064}, {"iso3": "SDN", "country_name": "Sudan", "year": 2018, "new_displacement": 40795, "new_displacement_rounded": 41000, "total_displacement_rounded": 2072000, "total_displacement": 2071821}, {"iso3": "SYR", "country_name": "Syria", "year": 2018, "new_displacement": 1649476, "new_displacement_rounded": 1649000, "total_displacement_rounded": 6119000, "total_displacement": 6118928}, {"iso3": "THA", "country_name": "Thailand", "year": 2018, "new_displacement": null, "new_displacement_rounded": null, "total_displacement_rounded": 41000, "total_displacement": 40584}, {"iso3": "TUR", "country_name": "T\u00fcrkiye", "year": 2018, "new_displacement": null, "new_displacement_rounded": null, "total_displacement_rounded": 1097000, "total_displacement": 1097493}, {"iso3": "UGA", "country_name": "Uganda", "year": 2018, "new_displacement": 9040, "new_displacement_rounded": 9000, "total_displacement_rounded": 32000, "total_displacement": 32283}, {"iso3": "UKR", "country_name": "Ukraine", "year": 2018, "new_displacement": 12162, "new_displacement_rounded": 12000, "total_displacement_rounded": 800000, "total_displacement": 800208}, {"iso3": "YEM", "country_name": "Yemen", "year": 2018, "new_displacement": 251964, "new_displacement_rounded": 252000, "total_displacement_rounded": 2324000, "total_displacement": 2323596}, {"iso3": "AB9", "country_name": "Abyei Area", "year": 2019, "new_displacement": null, "new_displacement_rounded": null, "total_displacement_rounded": 31000, "total_displacement": 31024}, {"iso3": "AFG", "country_name": "Afghanistan", "year": 2019, "new_displacement": 460692, "new_displacement_rounded": 461000, "total_displacement_rounded": 2993000, "total_displacement": 2993384}, {"iso3": "AZE", "country_name": "Azerbaijan", "year": 2019, "new_displacement": null, "new_displacement_rounded": null, "total_displacement_rounded": 651000, "total_displacement": 651458}, {"iso3": "BGD", "country_name": "Bangladesh", "year": 2019, "new_displacement": 491, "new_displacement_rounded": 490, "total_displacement_rounded": 427000, "total_displacement": 426532}, {"iso3": "BEN", "country_name": "Benin", "year": 2019, "new_displacement": null, "new_displacement_rounded": null, "total_displacement_rounded": 3500, "total_displacement": 3494}, {"iso3": "BOL", "country_name": "Bolivia", "year": 2019, "new_displacement": 31, "new_displacement_rounded": 31, "total_displacement_rounded": 31, "total_displacement": 31}, {"iso3": "BIH", "country_name": "Bosnia and Herzegovina", "year": 2019, "new_displacement": null, "new_displacement_rounded": null, "total_displacement_rounded": 99000, "total_displacement": 98574}, {"iso3": "BFA", "country_name": "Burkina Faso", "year": 2019, "new_displacement": 513004, "new_displacement_rounded": 513000, "total_displacement_rounded": 560000, "total_displacement": 560033}, {"iso3": "BDI", "country_name": "Burundi", "year": 2019, "new_displacement": 533, "new_displacement_rounded": 530, "total_displacement_rounded": 23000, "total_displacement": 23468}, {"iso3": "CMR", "country_name": "Cameroon", "year": 2019, "new_displacement": 66569, "new_displacement_rounded": 67000, "total_displacement_rounded": 969000, "total_displacement": 968849}, {"iso3": "CAF", "country_name": "Central African Republic", "year": 2019, "new_displacement": 95981, "new_displacement_rounded": 96000, "total_displacement_rounded": 592000, "total_displacement": 592365}, {"iso3": "TCD", "country_name": "Chad", "year": 2019, "new_displacement": 58293, "new_displacement_rounded": 58000, "total_displacement_rounded": 176000, "total_displacement": 175603}, {"iso3": "COL", "country_name": "Colombia", "year": 2019, "new_displacement": 139065, "new_displacement_rounded": 139000, "total_displacement_rounded": 5576000, "total_displacement": 5575987}, {"iso3": "COG", "country_name": "Congo", "year": 2019, "new_displacement": 2, "new_displacement_rounded": 2, "total_displacement_rounded": 134000, "total_displacement": 134430}, {"iso3": "CIV", "country_name": "C\u00f4te d'Ivoire", "year": 2019, "new_displacement": 300, "new_displacement_rounded": 300, "total_displacement_rounded": 302000, "total_displacement": 302005}, {"iso3": "CYP", "country_name": "Cyprus", "year": 2019, "new_displacement": null, "new_displacement_rounded": null, "total_displacement_rounded": 228000, "total_displacement": 228125}, {"iso3": "COD", "country_name": "Dem. Rep. Congo", "year": 2019, "new_displacement": 1671769, "new_displacement_rounded": 1672000, "total_displacement_rounded": 5512000, "total_displacement": 5512073}, {"iso3": "EGY", "country_name": "Egypt", "year": 2019, "new_displacement": 4, "new_displacement_rounded": 4, "total_displacement_rounded": 3200, "total_displacement": 3185}, {"iso3": "SLV", "country_name": "El Salvador", "year": 2019, "new_displacement": 453706, "new_displacement_rounded": 454000, "total_displacement_rounded": null, "total_displacement": null}, {"iso3": "ETH", "country_name": "Ethiopia", "year": 2019, "new_displacement": 1051728, "new_displacement_rounded": 1052000, "total_displacement_rounded": 1324000, "total_displacement": 1323553}, {"iso3": "GEO", "country_name": "Georgia", "year": 2019, "new_displacement": null, "new_displacement_rounded": null, "total_displacement_rounded": 301000, "total_displacement": 301216}, {"iso3": "GHA", "country_name": "Ghana", "year": 2019, "new_displacement": 2035, "new_displacement_rounded": 2000, "total_displacement_rounded": null, "total_displacement": null}, {"iso3": "GTM", "country_name": "Guatemala", "year": 2019, "new_displacement": null, "new_displacement_rounded": null, "total_displacement_rounded": 242000, "total_displacement": 242386}, {"iso3": "HTI", "country_name": "Haiti", "year": 2019, "new_displacement": 2128, "new_displacement_rounded": 2100, "total_displacement_rounded": 2100, "total_displacement": 2128}, {"iso3": "HND", "country_name": "Honduras", "year": 2019, "new_displacement": null, "new_displacement_rounded": null, "total_displacement_rounded": 247000, "total_displacement": 247090}, {"iso3": "IND", "country_name": "India", "year": 2019, "new_displacement": 19005, "new_displacement_rounded": 19000, "total_displacement_rounded": 470000, "total_displacement": 469624}]}
