{"last_updated": "2025-05-13", "count": 961, "next": "https://helix-tools-api.idmcdb.org/external-api/gidd/conflicts/?client_id=HDX00AKEYJUl17&client_id=HDX00AKEYJUl17&format=json&limit=100&offset=400", "previous": "https://helix-tools-api.idmcdb.org/external-api/gidd/conflicts/?client_id=HDX00AKEYJUl17&client_id=HDX00AKEYJUl17&format=json&limit=100&offset=200", "results": [{"iso3": "CYP", "country_name": "Cyprus", "year": 2014, "new_displacement": 0, "new_displacement_rounded": null, "total_displacement_rounded": 212000, "total_displacement": 212400}, {"iso3": "EGY", "country_name": "Egypt", "year": 2014, "new_displacement": 4740, "new_displacement_rounded": 4700, "total_displacement_rounded": 4100, "total_displacement": 4071}, {"iso3": "ERI", "country_name": "Eritrea", "year": 2014, "new_displacement": 0, "new_displacement_rounded": null, "total_displacement_rounded": 10000, "total_displacement": 10000}, {"iso3": "ETH", "country_name": "Ethiopia", "year": 2014, "new_displacement": 137073, "new_displacement_rounded": 137000, "total_displacement_rounded": 397000, "total_displacement": 397241}, {"iso3": "GEO", "country_name": "Georgia", "year": 2014, "new_displacement": 0, "new_displacement_rounded": null, "total_displacement_rounded": 233000, "total_displacement": 232704}, {"iso3": "GTM", "country_name": "Guatemala", "year": 2014, "new_displacement": 1400, "new_displacement_rounded": 1400, "total_displacement_rounded": 249000, "total_displacement": 248516}, {"iso3": "HND", "country_name": "Honduras", "year": 2014, "new_displacement": 0, "new_displacement_rounded": null, "total_displacement_rounded": 29000, "total_displacement": 29356}, {"iso3": "IDN", "country_name": "Indonesia", "year": 2014, "new_displacement": 800, "new_displacement_rounded": 800, "total_displacement_rounded": 84000, "total_displacement": 84000}, {"iso3": "IND", "country_name": "India", "year": 2014, "new_displacement": 345000, "new_displacement_rounded": 345000, "total_displacement_rounded": 854000, "total_displacement": 853900}, {"iso3": "IRQ", "country_name": "Iraq", "year": 2014, "new_displacement": 2176764, "new_displacement_rounded": 2177000, "total_displacement_rounded": 3276000, "total_displacement": 3276000}, {"iso3": "ISR", "country_name": "Israel", "year": 2014, "new_displacement": 10000, "new_displacement_rounded": 10000, "total_displacement_rounded": null, "total_displacement": null}, {"iso3": "KEN", "country_name": "Kenya", "year": 2014, "new_displacement": 220177, "new_displacement_rounded": 220000, "total_displacement_rounded": 309000, "total_displacement": 309200}, {"iso3": "LAO", "country_name": "Lao PDR", "year": 2014, "new_displacement": 0, "new_displacement_rounded": null, "total_displacement_rounded": null, "total_displacement": null}, {"iso3": "LBN", "country_name": "Lebanon", "year": 2014, "new_displacement": 0, "new_displacement_rounded": null, "total_displacement_rounded": 20000, "total_displacement": 19719}, {"iso3": "LBR", "country_name": "Liberia", "year": 2014, "new_displacement": 0, "new_displacement_rounded": null, "total_displacement_rounded": 23000, "total_displacement": 23000}, {"iso3": "LBY", "country_name": "Libya", "year": 2014, "new_displacement": 340600, "new_displacement_rounded": 341000, "total_displacement_rounded": 400000, "total_displacement": 400000}, {"iso3": "LKA", "country_name": "Sri Lanka", "year": 2014, "new_displacement": 0, "new_displacement_rounded": null, "total_displacement_rounded": 90000, "total_displacement": 90000}, {"iso3": "MEX", "country_name": "Mexico", "year": 2014, "new_displacement": 9024, "new_displacement_rounded": 9000, "total_displacement_rounded": 281000, "total_displacement": 281418}, {"iso3": "MKD", "country_name": "North Macedonia", "year": 2014, "new_displacement": 0, "new_displacement_rounded": null, "total_displacement_rounded": 220, "total_displacement": 224}, {"iso3": "MLI", "country_name": "Mali", "year": 2014, "new_displacement": 19200, "new_displacement_rounded": 19000, "total_displacement_rounded": 62000, "total_displacement": 61600}, {"iso3": "MMR", "country_name": "Myanmar", "year": 2014, "new_displacement": 6200, "new_displacement_rounded": 6200, "total_displacement_rounded": 645000, "total_displacement": 645261}, {"iso3": "NER", "country_name": "Niger", "year": 2014, "new_displacement": 0, "new_displacement_rounded": null, "total_displacement_rounded": 11000, "total_displacement": 11000}, {"iso3": "NGA", "country_name": "Nigeria", "year": 2014, "new_displacement": 975300, "new_displacement_rounded": 975000, "total_displacement_rounded": 1075000, "total_displacement": 1075300}, {"iso3": "NPL", "country_name": "Nepal", "year": 2014, "new_displacement": 0, "new_displacement_rounded": null, "total_displacement_rounded": 50000, "total_displacement": 50000}, {"iso3": "PAK", "country_name": "Pakistan", "year": 2014, "new_displacement": 907000, "new_displacement_rounded": 907000, "total_displacement_rounded": 1900000, "total_displacement": 1900000}, {"iso3": "PER", "country_name": "Peru", "year": 2014, "new_displacement": 0, "new_displacement_rounded": null, "total_displacement_rounded": 150000, "total_displacement": 150000}, {"iso3": "PHL", "country_name": "Philippines", "year": 2014, "new_displacement": 123800, "new_displacement_rounded": 124000, "total_displacement_rounded": 78000, "total_displacement": 77700}, {"iso3": "PNG", "country_name": "Papua New Guinea", "year": 2014, "new_displacement": 1200, "new_displacement_rounded": 1200, "total_displacement_rounded": 7500, "total_displacement": 7500}, {"iso3": "PSE", "country_name": "Palestine", "year": 2014, "new_displacement": 501000, "new_displacement_rounded": 501000, "total_displacement_rounded": 275000, "total_displacement": 275000}, {"iso3": "RUS", "country_name": "Russia", "year": 2014, "new_displacement": 0, "new_displacement_rounded": null, "total_displacement_rounded": 25000, "total_displacement": 25378}, {"iso3": "SDN", "country_name": "Sudan", "year": 2014, "new_displacement": 557500, "new_displacement_rounded": 558000, "total_displacement_rounded": 3100000, "total_displacement": 3100000}, {"iso3": "SEN", "country_name": "Senegal", "year": 2014, "new_displacement": 0, "new_displacement_rounded": null, "total_displacement_rounded": 24000, "total_displacement": 24000}, {"iso3": "SLV", "country_name": "El Salvador", "year": 2014, "new_displacement": 191205, "new_displacement_rounded": 191000, "total_displacement_rounded": null, "total_displacement": null}, {"iso3": "SOM", "country_name": "Somalia", "year": 2014, "new_displacement": 89000, "new_displacement_rounded": 89000, "total_displacement_rounded": 1107000, "total_displacement": 1106751}, {"iso3": "SRB", "country_name": "Serbia", "year": 2014, "new_displacement": 0, "new_displacement_rounded": null, "total_displacement_rounded": 97000, "total_displacement": 97300}, {"iso3": "SSD", "country_name": "South Sudan", "year": 2014, "new_displacement": 1304200, "new_displacement_rounded": 1304000, "total_displacement_rounded": 1498000, "total_displacement": 1498200}, {"iso3": "SYR", "country_name": "Syria", "year": 2014, "new_displacement": 1100000, "new_displacement_rounded": 1100000, "total_displacement_rounded": 7600000, "total_displacement": 7600000}, {"iso3": "TCD", "country_name": "Chad", "year": 2014, "new_displacement": 0, "new_displacement_rounded": null, "total_displacement_rounded": 71000, "total_displacement": 71000}, {"iso3": "TGO", "country_name": "Togo", "year": 2014, "new_displacement": 0, "new_displacement_rounded": null, "total_displacement_rounded": 10000, "total_displacement": 10000}, {"iso3": "THA", "country_name": "Thailand", "year": 2014, "new_displacement": 0, "new_displacement_rounded": null, "total_displacement_rounded": 35000, "total_displacement": 35000}, {"iso3": "TKM", "country_name": "Turkmenistan", "year": 2014, "new_displacement": 0, "new_displacement_rounded": null, "total_displacement_rounded": 4000, "total_displacement": 4000}, {"iso3": "TLS", "country_name": "Timor-Leste", "year": 2014, "new_displacement": 2086, "new_displacement_rounded": 2100, "total_displacement_rounded": 900, "total_displacement": 900}, {"iso3": "TUR", "country_name": "T\u00fcrkiye", "year": 2014, "new_displacement": 0, "new_displacement_rounded": null, "total_displacement_rounded": 954000, "total_displacement": 953700}, {"iso3": "UGA", "country_name": "Uganda", "year": 2014, "new_displacement": 0, "new_displacement_rounded": null, "total_displacement_rounded": 30000, "total_displacement": 29800}, {"iso3": "UKR", "country_name": "Ukraine", "year": 2014, "new_displacement": 646500, "new_displacement_rounded": 646000, "total_displacement_rounded": 646000, "total_displacement": 646500}, {"iso3": "UZB", "country_name": "Uzbekistan", "year": 2014, "new_displacement": 0, "new_displacement_rounded": null, "total_displacement_rounded": 3400, "total_displacement": 3400}, {"iso3": "XKX", "country_name": "Kosovo", "year": 2014, "new_displacement": 0, "new_displacement_rounded": null, "total_displacement_rounded": 17000, "total_displacement": 17113}, {"iso3": "YEM", "country_name": "Yemen", "year": 2014, "new_displacement": 100000, "new_displacement_rounded": 100000, "total_displacement_rounded": 334000, "total_displacement": 334090}, {"iso3": "ZWE", "country_name": "Zimbabwe", "year": 2014, "new_displacement": 0, "new_displacement_rounded": null, "total_displacement_rounded": null, "total_displacement": null}, {"iso3": "AB9", "country_name": "Abyei Area", "year": 2015, "new_displacement": 0, "new_displacement_rounded": null, "total_displacement_rounded": 82000, "total_displacement": 82000}, {"iso3": "AFG", "country_name": "Afghanistan", "year": 2015, "new_displacement": 335409, "new_displacement_rounded": 335000, "total_displacement_rounded": 1174000, "total_displacement": 1174306}, {"iso3": "ARM", "country_name": "Armenia", "year": 2015, "new_displacement": 0, "new_displacement_rounded": null, "total_displacement_rounded": 8400, "total_displacement": 8400}, {"iso3": "AZE", "country_name": "Azerbaijan", "year": 2015, "new_displacement": 0, "new_displacement_rounded": null, "total_displacement_rounded": 564000, "total_displacement": 564220}, {"iso3": "BDI", "country_name": "Burundi", "year": 2015, "new_displacement": 22844, "new_displacement_rounded": 23000, "total_displacement_rounded": 99000, "total_displacement": 99300}, {"iso3": "BGD", "country_name": "Bangladesh", "year": 2015, "new_displacement": 0, "new_displacement_rounded": null, "total_displacement_rounded": 426000, "total_displacement": 426438}, {"iso3": "BIH", "country_name": "Bosnia and Herzegovina", "year": 2015, "new_displacement": 0, "new_displacement_rounded": null, "total_displacement_rounded": 98000, "total_displacement": 98300}, {"iso3": "CAF", "country_name": "Central African Republic", "year": 2015, "new_displacement": 209793, "new_displacement_rounded": 210000, "total_displacement_rounded": 452000, "total_displacement": 451986}, {"iso3": "CIV", "country_name": "C\u00f4te d'Ivoire", "year": 2015, "new_displacement": 3150, "new_displacement_rounded": 3200, "total_displacement_rounded": 303000, "total_displacement": 303150}, {"iso3": "CMR", "country_name": "Cameroon", "year": 2015, "new_displacement": 70539, "new_displacement_rounded": 71000, "total_displacement_rounded": 124000, "total_displacement": 123959}, {"iso3": "COD", "country_name": "Dem. Rep. Congo", "year": 2015, "new_displacement": 621000, "new_displacement_rounded": 621000, "total_displacement_rounded": 1500000, "total_displacement": 1500000}, {"iso3": "COG", "country_name": "Congo", "year": 2015, "new_displacement": 0, "new_displacement_rounded": null, "total_displacement_rounded": 7800, "total_displacement": 7800}, {"iso3": "COL", "country_name": "Colombia", "year": 2015, "new_displacement": 224324, "new_displacement_rounded": 224000, "total_displacement_rounded": 6270000, "total_displacement": 6270436}, {"iso3": "CYP", "country_name": "Cyprus", "year": 2015, "new_displacement": 0, "new_displacement_rounded": null, "total_displacement_rounded": 272000, "total_displacement": 272400}, {"iso3": "EGY", "country_name": "Egypt", "year": 2015, "new_displacement": 8421, "new_displacement_rounded": 8400, "total_displacement_rounded": 9100, "total_displacement": 9068}, {"iso3": "ETH", "country_name": "Ethiopia", "year": 2015, "new_displacement": 55835, "new_displacement_rounded": 56000, "total_displacement_rounded": 450000, "total_displacement": 450203}, {"iso3": "GEO", "country_name": "Georgia", "year": 2015, "new_displacement": 0, "new_displacement_rounded": null, "total_displacement_rounded": 239000, "total_displacement": 239191}, {"iso3": "GTM", "country_name": "Guatemala", "year": 2015, "new_displacement": 0, "new_displacement_rounded": null, "total_displacement_rounded": 251000, "total_displacement": 250850}, {"iso3": "HND", "country_name": "Honduras", "year": 2015, "new_displacement": 0, "new_displacement_rounded": null, "total_displacement_rounded": 174000, "total_displacement": 174000}, {"iso3": "IDN", "country_name": "Indonesia", "year": 2015, "new_displacement": 153, "new_displacement_rounded": 150, "total_displacement_rounded": 6100, "total_displacement": 6057}, {"iso3": "IND", "country_name": "India", "year": 2015, "new_displacement": 1000, "new_displacement_rounded": 1000, "total_displacement_rounded": 612000, "total_displacement": 611763}, {"iso3": "IRQ", "country_name": "Iraq", "year": 2015, "new_displacement": 1113546, "new_displacement_rounded": 1114000, "total_displacement_rounded": 3290000, "total_displacement": 3290310}, {"iso3": "ISR", "country_name": "Israel", "year": 2015, "new_displacement": null, "new_displacement_rounded": null, "total_displacement_rounded": null, "total_displacement": null}, {"iso3": "KEN", "country_name": "Kenya", "year": 2015, "new_displacement": 0, "new_displacement_rounded": null, "total_displacement_rounded": 309000, "total_displacement": 309200}, {"iso3": "LBN", "country_name": "Lebanon", "year": 2015, "new_displacement": 3000, "new_displacement_rounded": 3000, "total_displacement_rounded": 12000, "total_displacement": 12419}, {"iso3": "LBY", "country_name": "Libya", "year": 2015, "new_displacement": 100000, "new_displacement_rounded": 100000, "total_displacement_rounded": 500000, "total_displacement": 500000}, {"iso3": "LKA", "country_name": "Sri Lanka", "year": 2015, "new_displacement": 0, "new_displacement_rounded": null, "total_displacement_rounded": 44000, "total_displacement": 43977}, {"iso3": "MEX", "country_name": "Mexico", "year": 2015, "new_displacement": 6000, "new_displacement_rounded": 6000, "total_displacement_rounded": 287000, "total_displacement": 287430}, {"iso3": "MKD", "country_name": "North Macedonia", "year": 2015, "new_displacement": 0, "new_displacement_rounded": null, "total_displacement_rounded": 200, "total_displacement": 199}, {"iso3": "MLI", "country_name": "Mali", "year": 2015, "new_displacement": 0, "new_displacement_rounded": null, "total_displacement_rounded": 50000, "total_displacement": 49883}, {"iso3": "MMR", "country_name": "Myanmar", "year": 2015, "new_displacement": 16000, "new_displacement_rounded": 16000, "total_displacement_rounded": 644000, "total_displacement": 644000}, {"iso3": "NER", "country_name": "Niger", "year": 2015, "new_displacement": 46988, "new_displacement_rounded": 47000, "total_displacement_rounded": 153000, "total_displacement": 152926}, {"iso3": "NGA", "country_name": "Nigeria", "year": 2015, "new_displacement": 736671, "new_displacement_rounded": 737000, "total_displacement_rounded": 2096000, "total_displacement": 2095812}, {"iso3": "NPL", "country_name": "Nepal", "year": 2015, "new_displacement": 0, "new_displacement_rounded": null, "total_displacement_rounded": 50000, "total_displacement": 50000}, {"iso3": "PAK", "country_name": "Pakistan", "year": 2015, "new_displacement": 0, "new_displacement_rounded": null, "total_displacement_rounded": 1459000, "total_displacement": 1459312}, {"iso3": "PER", "country_name": "Peru", "year": 2015, "new_displacement": 0, "new_displacement_rounded": null, "total_displacement_rounded": 60000, "total_displacement": 60000}, {"iso3": "PHL", "country_name": "Philippines", "year": 2015, "new_displacement": 287970, "new_displacement_rounded": 288000, "total_displacement_rounded": 62000, "total_displacement": 62454}, {"iso3": "PNG", "country_name": "Papua New Guinea", "year": 2015, "new_displacement": 0, "new_displacement_rounded": null, "total_displacement_rounded": 6300, "total_displacement": 6300}, {"iso3": "PSE", "country_name": "Palestine", "year": 2015, "new_displacement": 741, "new_displacement_rounded": 740, "total_displacement_rounded": 221000, "total_displacement": 221425}, {"iso3": "RUS", "country_name": "Russia", "year": 2015, "new_displacement": 0, "new_displacement_rounded": null, "total_displacement_rounded": 27000, "total_displacement": 26607}, {"iso3": "SDN", "country_name": "Sudan", "year": 2015, "new_displacement": 143760, "new_displacement_rounded": 144000, "total_displacement_rounded": 3182000, "total_displacement": 3182286}, {"iso3": "SEN", "country_name": "Senegal", "year": 2015, "new_displacement": 0, "new_displacement_rounded": null, "total_displacement_rounded": 24000, "total_displacement": 24000}, {"iso3": "SLV", "country_name": "El Salvador", "year": 2015, "new_displacement": 170105, "new_displacement_rounded": 170000, "total_displacement_rounded": null, "total_displacement": null}, {"iso3": "SOM", "country_name": "Somalia", "year": 2015, "new_displacement": 90000, "new_displacement_rounded": 90000, "total_displacement_rounded": 1223000, "total_displacement": 1223000}, {"iso3": "SSD", "country_name": "South Sudan", "year": 2015, "new_displacement": 198762, "new_displacement_rounded": 199000, "total_displacement_rounded": 1697000, "total_displacement": 1696962}, {"iso3": "SYR", "country_name": "Syria", "year": 2015, "new_displacement": 1300000, "new_displacement_rounded": 1300000, "total_displacement_rounded": 6600000, "total_displacement": 6600000}, {"iso3": "TCD", "country_name": "Chad", "year": 2015, "new_displacement": 36157, "new_displacement_rounded": 36000, "total_displacement_rounded": 107000, "total_displacement": 107157}, {"iso3": "TGO", "country_name": "Togo", "year": 2015, "new_displacement": 0, "new_displacement_rounded": null, "total_displacement_rounded": 3000, "total_displacement": 3000}, {"iso3": "THA", "country_name": "Thailand", "year": 2015, "new_displacement": 0, "new_displacement_rounded": null, "total_displacement_rounded": 35000, "total_displacement": 35000}, {"iso3": "TUR", "country_name": "T\u00fcrkiye", "year": 2015, "new_displacement": 0, "new_displacement_rounded": null, "total_displacement_rounded": 954000, "total_displacement": 954000}, {"iso3": "UGA", "country_name": "Uganda", "year": 2015, "new_displacement": 0, "new_displacement_rounded": null, "total_displacement_rounded": 30000, "total_displacement": 29776}]}
