{"count": 830, "next": "https://helix-tools-api.idmcdb.org/external-api/gidd/conflicts/?client_id=HDX00AKEYJUl17&client_id=HDX00AKEYJUl17&format=json&limit=100&offset=800", "previous": "https://helix-tools-api.idmcdb.org/external-api/gidd/conflicts/?client_id=HDX00AKEYJUl17&client_id=HDX00AKEYJUl17&format=json&limit=100&offset=600", "results": [{"iso3": "AZE", "country_name": "Azerbaijan", "year": 2021, "new_displacement": null, "new_displacement_rounded": null, "total_displacement_rounded": 655000, "total_displacement": 654839}, {"iso3": "BGD", "country_name": "Bangladesh", "year": 2021, "new_displacement": 151, "new_displacement_rounded": 150, "total_displacement_rounded": 427000, "total_displacement": 426914}, {"iso3": "BEN", "country_name": "Benin", "year": 2021, "new_displacement": null, "new_displacement_rounded": null, "total_displacement_rounded": 2700, "total_displacement": 2701}, {"iso3": "BIH", "country_name": "Bosnia and Herzegovina", "year": 2021, "new_displacement": null, "new_displacement_rounded": null, "total_displacement_rounded": 92000, "total_displacement": 91734}, {"iso3": "BRA", "country_name": "Brazil", "year": 2021, "new_displacement": 21468, "new_displacement_rounded": 21000, "total_displacement_rounded": 21000, "total_displacement": 20689}, {"iso3": "BFA", "country_name": "Burkina Faso", "year": 2021, "new_displacement": 682245, "new_displacement_rounded": 682000, "total_displacement_rounded": 1580000, "total_displacement": 1579976}, {"iso3": "BDI", "country_name": "Burundi", "year": 2021, "new_displacement": 94, "new_displacement_rounded": 94, "total_displacement_rounded": 19000, "total_displacement": 19083}, {"iso3": "CMR", "country_name": "Cameroon", "year": 2021, "new_displacement": 131452, "new_displacement_rounded": 131000, "total_displacement_rounded": 909000, "total_displacement": 908961}, {"iso3": "CAF", "country_name": "Central African Republic", "year": 2021, "new_displacement": 487025, "new_displacement_rounded": 487000, "total_displacement_rounded": 692000, "total_displacement": 691791}, {"iso3": "TCD", "country_name": "Chad", "year": 2021, "new_displacement": 42355, "new_displacement_rounded": 42000, "total_displacement_rounded": 397000, "total_displacement": 396625}, {"iso3": "COL", "country_name": "Colombia", "year": 2021, "new_displacement": 133848, "new_displacement_rounded": 134000, "total_displacement_rounded": 5235000, "total_displacement": 5235074}, {"iso3": "COG", "country_name": "Congo", "year": 2021, "new_displacement": null, "new_displacement_rounded": null, "total_displacement_rounded": 134000, "total_displacement": 134430}, {"iso3": "CIV", "country_name": "C\u00f4te d'Ivoire", "year": 2021, "new_displacement": null, "new_displacement_rounded": null, "total_displacement_rounded": 302000, "total_displacement": 301705}, {"iso3": "CYP", "country_name": "Cyprus", "year": 2021, "new_displacement": null, "new_displacement_rounded": null, "total_displacement_rounded": 242000, "total_displacement": 242481}, {"iso3": "COD", "country_name": "Dem. Rep. Congo", "year": 2021, "new_displacement": 2711783, "new_displacement_rounded": 2712000, "total_displacement_rounded": 5339000, "total_displacement": 5339000}, {"iso3": "EGY", "country_name": "Egypt", "year": 2021, "new_displacement": null, "new_displacement_rounded": null, "total_displacement_rounded": null, "total_displacement": 0}, {"iso3": "SLV", "country_name": "El Salvador", "year": 2021, "new_displacement": 175254, "new_displacement_rounded": 175000, "total_displacement_rounded": null, "total_displacement": null}, {"iso3": "ETH", "country_name": "Ethiopia", "year": 2021, "new_displacement": 5142356, "new_displacement_rounded": 5142000, "total_displacement_rounded": 3589000, "total_displacement": 3589421}, {"iso3": "GMB", "country_name": "Gambia", "year": 2021, "new_displacement": 696, "new_displacement_rounded": 700, "total_displacement_rounded": null, "total_displacement": 0}, {"iso3": "GEO", "country_name": "Georgia", "year": 2021, "new_displacement": null, "new_displacement_rounded": null, "total_displacement_rounded": 305000, "total_displacement": 304925}, {"iso3": "GTM", "country_name": "Guatemala", "year": 2021, "new_displacement": 130, "new_displacement_rounded": 130, "total_displacement_rounded": 242000, "total_displacement": 242386}, {"iso3": "HTI", "country_name": "Haiti", "year": 2021, "new_displacement": 20410, "new_displacement_rounded": 20000, "total_displacement_rounded": 17000, "total_displacement": 16598}, {"iso3": "HND", "country_name": "Honduras", "year": 2021, "new_displacement": 549, "new_displacement_rounded": 550, "total_displacement_rounded": 247000, "total_displacement": 247090}, {"iso3": "IND", "country_name": "India", "year": 2021, "new_displacement": 13042, "new_displacement_rounded": 13000, "total_displacement_rounded": 506000, "total_displacement": 505667}, {"iso3": "IDN", "country_name": "Indonesia", "year": 2021, "new_displacement": 26580, "new_displacement_rounded": 27000, "total_displacement_rounded": 73000, "total_displacement": 72778}, {"iso3": "IRQ", "country_name": "Iraq", "year": 2021, "new_displacement": 56891, "new_displacement_rounded": 57000, "total_displacement_rounded": 1187000, "total_displacement": 1186556}, {"iso3": "ISR", "country_name": "Israel", "year": 2021, "new_displacement": 3187, "new_displacement_rounded": 3200, "total_displacement_rounded": null, "total_displacement": null}, {"iso3": "KEN", "country_name": "Kenya", "year": 2021, "new_displacement": 4634, "new_displacement_rounded": 4600, "total_displacement_rounded": 190000, "total_displacement": 190000}, {"iso3": "XKX", "country_name": "Kosovo", "year": 2021, "new_displacement": null, "new_displacement_rounded": null, "total_displacement_rounded": 16000, "total_displacement": 15683}, {"iso3": "KGZ", "country_name": "Kyrgyzstan", "year": 2021, "new_displacement": 46268, "new_displacement_rounded": 46000, "total_displacement_rounded": null, "total_displacement": 0}, {"iso3": "LBN", "country_name": "Lebanon", "year": 2021, "new_displacement": 61, "new_displacement_rounded": 61, "total_displacement_rounded": 50, "total_displacement": 50}, {"iso3": "LBY", "country_name": "Libya", "year": 2021, "new_displacement": null, "new_displacement_rounded": null, "total_displacement_rounded": 160000, "total_displacement": 160456}, {"iso3": "MDG", "country_name": "Madagascar", "year": 2021, "new_displacement": 1295, "new_displacement_rounded": 1300, "total_displacement_rounded": 2800, "total_displacement": 2807}, {"iso3": "MLI", "country_name": "Mali", "year": 2021, "new_displacement": 249174, "new_displacement_rounded": 249000, "total_displacement_rounded": 326000, "total_displacement": 326135}, {"iso3": "MYT", "country_name": "Mayotte", "year": 2021, "new_displacement": 8, "new_displacement_rounded": 8, "total_displacement_rounded": 8, "total_displacement": 8}, {"iso3": "MEX", "country_name": "Mexico", "year": 2021, "new_displacement": 28867, "new_displacement_rounded": 29000, "total_displacement_rounded": 379000, "total_displacement": 379246}, {"iso3": "MOZ", "country_name": "Mozambique", "year": 2021, "new_displacement": 187057, "new_displacement_rounded": 187000, "total_displacement_rounded": 735000, "total_displacement": 735334}, {"iso3": "MMR", "country_name": "Myanmar", "year": 2021, "new_displacement": 447818, "new_displacement_rounded": 448000, "total_displacement_rounded": 649000, "total_displacement": 649015}, {"iso3": "NCL", "country_name": "New Caledonia", "year": 2021, "new_displacement": 13, "new_displacement_rounded": 13, "total_displacement_rounded": 150, "total_displacement": 151}, {"iso3": "NIC", "country_name": "Nicaragua", "year": 2021, "new_displacement": null, "new_displacement_rounded": null, "total_displacement_rounded": 77, "total_displacement": 77}, {"iso3": "NER", "country_name": "Niger", "year": 2021, "new_displacement": 110203, "new_displacement_rounded": 110000, "total_displacement_rounded": 224000, "total_displacement": 224016}, {"iso3": "NGA", "country_name": "Nigeria", "year": 2021, "new_displacement": 375552, "new_displacement_rounded": 376000, "total_displacement_rounded": 3228000, "total_displacement": 3228380}, {"iso3": "MKD", "country_name": "North Macedonia", "year": 2021, "new_displacement": null, "new_displacement_rounded": null, "total_displacement_rounded": 110, "total_displacement": 108}, {"iso3": "PAK", "country_name": "Pakistan", "year": 2021, "new_displacement": null, "new_displacement_rounded": null, "total_displacement_rounded": 104000, "total_displacement": 103602}, {"iso3": "PSE", "country_name": "Palestine", "year": 2021, "new_displacement": 118211, "new_displacement_rounded": 118000, "total_displacement_rounded": 12000, "total_displacement": 11711}, {"iso3": "PNG", "country_name": "Papua New Guinea", "year": 2021, "new_displacement": 9514, "new_displacement_rounded": 9500, "total_displacement_rounded": 24000, "total_displacement": 23730}, {"iso3": "PER", "country_name": "Peru", "year": 2021, "new_displacement": null, "new_displacement_rounded": null, "total_displacement_rounded": 60000, "total_displacement": 59846}, {"iso3": "PHL", "country_name": "Philippines", "year": 2021, "new_displacement": 140145, "new_displacement_rounded": 140000, "total_displacement_rounded": 108000, "total_displacement": 108463}, {"iso3": "RUS", "country_name": "Russia", "year": 2021, "new_displacement": null, "new_displacement_rounded": null, "total_displacement_rounded": 470, "total_displacement": 474}, {"iso3": "SEN", "country_name": "Senegal", "year": 2021, "new_displacement": null, "new_displacement_rounded": null, "total_displacement_rounded": 8400, "total_displacement": 8406}, {"iso3": "SLE", "country_name": "Sierra Leone", "year": 2021, "new_displacement": null, "new_displacement_rounded": null, "total_displacement_rounded": 5500, "total_displacement": 5500}, {"iso3": "SLB", "country_name": "Solomon Islands", "year": 2021, "new_displacement": 1000, "new_displacement_rounded": 1000, "total_displacement_rounded": 1000, "total_displacement": 1000}, {"iso3": "SOM", "country_name": "Somalia", "year": 2021, "new_displacement": 548884, "new_displacement_rounded": 549000, "total_displacement_rounded": 2968000, "total_displacement": 2967500}, {"iso3": "ZAF", "country_name": "South Africa", "year": 2021, "new_displacement": 519, "new_displacement_rounded": 520, "total_displacement_rounded": null, "total_displacement": 0}, {"iso3": "SSD", "country_name": "South Sudan", "year": 2021, "new_displacement": 429432, "new_displacement_rounded": 429000, "total_displacement_rounded": 1369000, "total_displacement": 1368635}, {"iso3": "LKA", "country_name": "Sri Lanka", "year": 2021, "new_displacement": null, "new_displacement_rounded": null, "total_displacement_rounded": 12000, "total_displacement": 12342}, {"iso3": "SDN", "country_name": "Sudan", "year": 2021, "new_displacement": 442427, "new_displacement_rounded": 442000, "total_displacement_rounded": 3175000, "total_displacement": 3175046}, {"iso3": "SYR", "country_name": "Syria", "year": 2021, "new_displacement": 455540, "new_displacement_rounded": 456000, "total_displacement_rounded": 6662000, "total_displacement": 6661640}, {"iso3": "TJK", "country_name": "Tajikistan", "year": 2021, "new_displacement": 15000, "new_displacement_rounded": 15000, "total_displacement_rounded": null, "total_displacement": 0}, {"iso3": "THA", "country_name": "Thailand", "year": 2021, "new_displacement": 520, "new_displacement_rounded": 520, "total_displacement_rounded": 41000, "total_displacement": 41104}, {"iso3": "TUR", "country_name": "T\u00fcrkiye", "year": 2021, "new_displacement": null, "new_displacement_rounded": null, "total_displacement_rounded": 1099000, "total_displacement": 1099493}, {"iso3": "UGA", "country_name": "Uganda", "year": 2021, "new_displacement": 1278, "new_displacement_rounded": 1300, "total_displacement_rounded": 1700, "total_displacement": 1700}, {"iso3": "UKR", "country_name": "Ukraine", "year": 2021, "new_displacement": 40, "new_displacement_rounded": 40, "total_displacement_rounded": 854000, "total_displacement": 854000}, {"iso3": "YEM", "country_name": "Yemen", "year": 2021, "new_displacement": 376663, "new_displacement_rounded": 377000, "total_displacement_rounded": 4289000, "total_displacement": 4288739}, {"iso3": "AB9", "country_name": "Abyei Area", "year": 2022, "new_displacement": 55705, "new_displacement_rounded": 56000, "total_displacement_rounded": 56000, "total_displacement": 55705}, {"iso3": "AFG", "country_name": "Afghanistan", "year": 2022, "new_displacement": 32424, "new_displacement_rounded": 32000, "total_displacement_rounded": 4394000, "total_displacement": 4393749}, {"iso3": "ARM", "country_name": "Armenia", "year": 2022, "new_displacement": 7600, "new_displacement_rounded": 7600, "total_displacement_rounded": 8400, "total_displacement": 8400}, {"iso3": "AZE", "country_name": "Azerbaijan", "year": 2022, "new_displacement": 0, "new_displacement_rounded": null, "total_displacement_rounded": 659000, "total_displacement": 658742}, {"iso3": "BGD", "country_name": "Bangladesh", "year": 2022, "new_displacement": 560, "new_displacement_rounded": 560, "total_displacement_rounded": 427000, "total_displacement": 427352}, {"iso3": "BEN", "country_name": "Benin", "year": 2022, "new_displacement": 1231, "new_displacement_rounded": 1200, "total_displacement_rounded": 1200, "total_displacement": 1231}, {"iso3": "BIH", "country_name": "Bosnia and Herzegovina", "year": 2022, "new_displacement": null, "new_displacement_rounded": null, "total_displacement_rounded": 91000, "total_displacement": 91223}, {"iso3": "BRA", "country_name": "Brazil", "year": 2022, "new_displacement": 5582, "new_displacement_rounded": 5600, "total_displacement_rounded": 5600, "total_displacement": 5582}, {"iso3": "BFA", "country_name": "Burkina Faso", "year": 2022, "new_displacement": 438462, "new_displacement_rounded": 438000, "total_displacement_rounded": 1882000, "total_displacement": 1882391}, {"iso3": "BDI", "country_name": "Burundi", "year": 2022, "new_displacement": 601, "new_displacement_rounded": 600, "total_displacement_rounded": 8500, "total_displacement": 8495}, {"iso3": "CMR", "country_name": "Cameroon", "year": 2022, "new_displacement": 138662, "new_displacement_rounded": 139000, "total_displacement_rounded": 987000, "total_displacement": 986572}, {"iso3": "CAF", "country_name": "Central African Republic", "year": 2022, "new_displacement": 290408, "new_displacement_rounded": 290000, "total_displacement_rounded": 516000, "total_displacement": 515665}, {"iso3": "TCD", "country_name": "Chad", "year": 2022, "new_displacement": 80247, "new_displacement_rounded": 80000, "total_displacement_rounded": 300000, "total_displacement": 300234}, {"iso3": "COL", "country_name": "Colombia", "year": 2022, "new_displacement": 338665, "new_displacement_rounded": 339000, "total_displacement_rounded": 4766000, "total_displacement": 4766280}, {"iso3": "COG", "country_name": "Congo", "year": 2022, "new_displacement": null, "new_displacement_rounded": null, "total_displacement_rounded": 27000, "total_displacement": 26875}, {"iso3": "CIV", "country_name": "C\u00f4te d'Ivoire", "year": 2022, "new_displacement": null, "new_displacement_rounded": null, "total_displacement_rounded": 302000, "total_displacement": 301705}, {"iso3": "CYP", "country_name": "Cyprus", "year": 2022, "new_displacement": null, "new_displacement_rounded": null, "total_displacement_rounded": 246000, "total_displacement": 245943}, {"iso3": "COD", "country_name": "Dem. Rep. Congo", "year": 2022, "new_displacement": 4004370, "new_displacement_rounded": 4004000, "total_displacement_rounded": 5686000, "total_displacement": 5686431}, {"iso3": "SLV", "country_name": "El Salvador", "year": 2022, "new_displacement": 72757, "new_displacement_rounded": 73000, "total_displacement_rounded": 52000, "total_displacement": 51970}, {"iso3": "ETH", "country_name": "Ethiopia", "year": 2022, "new_displacement": 2032268, "new_displacement_rounded": 2032000, "total_displacement_rounded": 3852000, "total_displacement": 3851840}, {"iso3": "GMB", "country_name": "Gambia", "year": 2022, "new_displacement": 7830, "new_displacement_rounded": 7800, "total_displacement_rounded": 5600, "total_displacement": 5626}, {"iso3": "GEO", "country_name": "Georgia", "year": 2022, "new_displacement": null, "new_displacement_rounded": null, "total_displacement_rounded": 308000, "total_displacement": 307946}, {"iso3": "GTM", "country_name": "Guatemala", "year": 2022, "new_displacement": 5, "new_displacement_rounded": 5, "total_displacement_rounded": 242000, "total_displacement": 242386}, {"iso3": "HTI", "country_name": "Haiti", "year": 2022, "new_displacement": 106089, "new_displacement_rounded": 106000, "total_displacement_rounded": 171000, "total_displacement": 170581}, {"iso3": "HND", "country_name": "Honduras", "year": 2022, "new_displacement": 255, "new_displacement_rounded": 260, "total_displacement_rounded": 247000, "total_displacement": 247090}, {"iso3": "IND", "country_name": "India", "year": 2022, "new_displacement": 1005, "new_displacement_rounded": 1000, "total_displacement_rounded": 631000, "total_displacement": 631104}, {"iso3": "IDN", "country_name": "Indonesia", "year": 2022, "new_displacement": 7092, "new_displacement_rounded": 7100, "total_displacement_rounded": 72000, "total_displacement": 72040}, {"iso3": "IRQ", "country_name": "Iraq", "year": 2022, "new_displacement": 32330, "new_displacement_rounded": 32000, "total_displacement_rounded": 1169000, "total_displacement": 1168619}, {"iso3": "ISR", "country_name": "Israel", "year": 2022, "new_displacement": 1105, "new_displacement_rounded": 1100, "total_displacement_rounded": null, "total_displacement": null}, {"iso3": "KAZ", "country_name": "Kazakhstan", "year": 2022, "new_displacement": 115, "new_displacement_rounded": 120, "total_displacement_rounded": 120, "total_displacement": 115}, {"iso3": "KEN", "country_name": "Kenya", "year": 2022, "new_displacement": 15382, "new_displacement_rounded": 15000, "total_displacement_rounded": 30000, "total_displacement": 30243}, {"iso3": "XKX", "country_name": "Kosovo", "year": 2022, "new_displacement": null, "new_displacement_rounded": null, "total_displacement_rounded": 16000, "total_displacement": 15646}, {"iso3": "KGZ", "country_name": "Kyrgyzstan", "year": 2022, "new_displacement": 166329, "new_displacement_rounded": 166000, "total_displacement_rounded": 4000, "total_displacement": 4003}, {"iso3": "LBY", "country_name": "Libya", "year": 2022, "new_displacement": 364, "new_displacement_rounded": 360, "total_displacement_rounded": 135000, "total_displacement": 134787}, {"iso3": "MDG", "country_name": "Madagascar", "year": 2022, "new_displacement": null, "new_displacement_rounded": null, "total_displacement_rounded": 2800, "total_displacement": 2807}, {"iso3": "MLI", "country_name": "Mali", "year": 2022, "new_displacement": 153990, "new_displacement_rounded": 154000, "total_displacement_rounded": 380000, "total_displacement": 379932}]}
