{"count": 830, "next": "https://helix-tools-api.idmcdb.org/external-api/gidd/conflicts/?client_id=HDX00AKEYJUl17&format=json&limit=100&offset=100", "previous": null, "results": [{"iso3": "AFG", "country_name": "Afghanistan", "year": 2009, "new_displacement": 0, "new_displacement_rounded": null, "total_displacement_rounded": 297000, "total_displacement": 297000}, {"iso3": "AGO", "country_name": "Angola", "year": 2009, "new_displacement": 0, "new_displacement_rounded": null, "total_displacement_rounded": null, "total_displacement": null}, {"iso3": "ARM", "country_name": "Armenia", "year": 2009, "new_displacement": 0, "new_displacement_rounded": null, "total_displacement_rounded": 8400, "total_displacement": 8400}, {"iso3": "AZE", "country_name": "Azerbaijan", "year": 2009, "new_displacement": 0, "new_displacement_rounded": null, "total_displacement_rounded": 586000, "total_displacement": 586013}, {"iso3": "BDI", "country_name": "Burundi", "year": 2009, "new_displacement": 0, "new_displacement_rounded": null, "total_displacement_rounded": 100000, "total_displacement": 100000}, {"iso3": "BGD", "country_name": "Bangladesh", "year": 2009, "new_displacement": 5000, "new_displacement_rounded": 5000, "total_displacement_rounded": 426000, "total_displacement": 426490}, {"iso3": "BIH", "country_name": "Bosnia and Herzegovina", "year": 2009, "new_displacement": 0, "new_displacement_rounded": null, "total_displacement_rounded": 114000, "total_displacement": 113600}, {"iso3": "CAF", "country_name": "Central African Republic", "year": 2009, "new_displacement": 15000, "new_displacement_rounded": 15000, "total_displacement_rounded": 162000, "total_displacement": 162000}, {"iso3": "CIV", "country_name": "C\u00f4te d'Ivoire", "year": 2009, "new_displacement": 500, "new_displacement_rounded": 500, "total_displacement_rounded": 342000, "total_displacement": 342000}, {"iso3": "COD", "country_name": "Dem. Rep. Congo", "year": 2009, "new_displacement": 1000000, "new_displacement_rounded": 1000000, "total_displacement_rounded": 1900000, "total_displacement": 1900000}, {"iso3": "COG", "country_name": "Congo", "year": 2009, "new_displacement": 0, "new_displacement_rounded": null, "total_displacement_rounded": 7800, "total_displacement": 7800}, {"iso3": "COL", "country_name": "Colombia", "year": 2009, "new_displacement": 286389, "new_displacement_rounded": 286000, "total_displacement_rounded": 4916000, "total_displacement": 4915579}, {"iso3": "CYP", "country_name": "Cyprus", "year": 2009, "new_displacement": 0, "new_displacement_rounded": null, "total_displacement_rounded": 201000, "total_displacement": 201000}, {"iso3": "DZA", "country_name": "Algeria", "year": 2009, "new_displacement": 0, "new_displacement_rounded": null, "total_displacement_rounded": null, "total_displacement": null}, {"iso3": "ERI", "country_name": "Eritrea", "year": 2009, "new_displacement": 0, "new_displacement_rounded": null, "total_displacement_rounded": 10000, "total_displacement": 10000}, {"iso3": "ETH", "country_name": "Ethiopia", "year": 2009, "new_displacement": 200000, "new_displacement_rounded": 200000, "total_displacement_rounded": 350000, "total_displacement": 350000}, {"iso3": "GEO", "country_name": "Georgia", "year": 2009, "new_displacement": 0, "new_displacement_rounded": null, "total_displacement_rounded": 240000, "total_displacement": 240000}, {"iso3": "GTM", "country_name": "Guatemala", "year": 2009, "new_displacement": 0, "new_displacement_rounded": null, "total_displacement_rounded": null, "total_displacement": null}, {"iso3": "HRV", "country_name": "Croatia", "year": 2009, "new_displacement": 0, "new_displacement_rounded": null, "total_displacement_rounded": 2400, "total_displacement": 2400}, {"iso3": "IDN", "country_name": "Indonesia", "year": 2009, "new_displacement": 500, "new_displacement_rounded": 500, "total_displacement_rounded": 70000, "total_displacement": 70000}, {"iso3": "IND", "country_name": "India", "year": 2009, "new_displacement": 33000, "new_displacement_rounded": 33000, "total_displacement_rounded": 500000, "total_displacement": 500000}, {"iso3": "IRQ", "country_name": "Iraq", "year": 2009, "new_displacement": 0, "new_displacement_rounded": null, "total_displacement_rounded": 2764000, "total_displacement": 2764000}, {"iso3": "ISR", "country_name": "Israel", "year": 2009, "new_displacement": 0, "new_displacement_rounded": null, "total_displacement_rounded": null, "total_displacement": null}, {"iso3": "KEN", "country_name": "Kenya", "year": 2009, "new_displacement": 0, "new_displacement_rounded": null, "total_displacement_rounded": 250000, "total_displacement": 250000}, {"iso3": "LBN", "country_name": "Lebanon", "year": 2009, "new_displacement": 0, "new_displacement_rounded": null, "total_displacement_rounded": 90000, "total_displacement": 90000}, {"iso3": "LBR", "country_name": "Liberia", "year": 2009, "new_displacement": 0, "new_displacement_rounded": null, "total_displacement_rounded": 23000, "total_displacement": 23000}, {"iso3": "LKA", "country_name": "Sri Lanka", "year": 2009, "new_displacement": 280000, "new_displacement_rounded": 280000, "total_displacement_rounded": 400000, "total_displacement": 400000}, {"iso3": "MEX", "country_name": "Mexico", "year": 2009, "new_displacement": 0, "new_displacement_rounded": null, "total_displacement_rounded": 8000, "total_displacement": 8000}, {"iso3": "MKD", "country_name": "North Macedonia", "year": 2009, "new_displacement": 0, "new_displacement_rounded": null, "total_displacement_rounded": 640, "total_displacement": 644}, {"iso3": "MMR", "country_name": "Myanmar", "year": 2009, "new_displacement": 75000, "new_displacement_rounded": 75000, "total_displacement_rounded": 470000, "total_displacement": 470000}, {"iso3": "NER", "country_name": "Niger", "year": 2009, "new_displacement": 0, "new_displacement_rounded": null, "total_displacement_rounded": 11000, "total_displacement": 11000}, {"iso3": "NGA", "country_name": "Nigeria", "year": 2009, "new_displacement": 5000, "new_displacement_rounded": 5000, "total_displacement_rounded": null, "total_displacement": null}, {"iso3": "NPL", "country_name": "Nepal", "year": 2009, "new_displacement": 5000, "new_displacement_rounded": 5000, "total_displacement_rounded": 60000, "total_displacement": 60000}, {"iso3": "PAK", "country_name": "Pakistan", "year": 2009, "new_displacement": 3000000, "new_displacement_rounded": 3000000, "total_displacement_rounded": 1230000, "total_displacement": 1230000}, {"iso3": "PER", "country_name": "Peru", "year": 2009, "new_displacement": 0, "new_displacement_rounded": null, "total_displacement_rounded": 150000, "total_displacement": 150000}, {"iso3": "PHL", "country_name": "Philippines", "year": 2009, "new_displacement": 400000, "new_displacement_rounded": 400000, "total_displacement_rounded": 125000, "total_displacement": 125000}, {"iso3": "PSE", "country_name": "Palestine", "year": 2009, "new_displacement": 100000, "new_displacement_rounded": 100000, "total_displacement_rounded": 160000, "total_displacement": 160000}, {"iso3": "RUS", "country_name": "Russia", "year": 2009, "new_displacement": 0, "new_displacement_rounded": null, "total_displacement_rounded": 80000, "total_displacement": 80000}, {"iso3": "RWA", "country_name": "Rwanda", "year": 2009, "new_displacement": 0, "new_displacement_rounded": null, "total_displacement_rounded": null, "total_displacement": null}, {"iso3": "SDN", "country_name": "Sudan", "year": 2009, "new_displacement": 530000, "new_displacement_rounded": 530000, "total_displacement_rounded": 4900000, "total_displacement": 4900000}, {"iso3": "SEN", "country_name": "Senegal", "year": 2009, "new_displacement": 1000, "new_displacement_rounded": 1000, "total_displacement_rounded": 24000, "total_displacement": 24000}, {"iso3": "SOM", "country_name": "Somalia", "year": 2009, "new_displacement": 400000, "new_displacement_rounded": 400000, "total_displacement_rounded": 1500000, "total_displacement": 1500000}, {"iso3": "SRB", "country_name": "Serbia", "year": 2009, "new_displacement": 0, "new_displacement_rounded": null, "total_displacement_rounded": 225000, "total_displacement": 225200}, {"iso3": "SYR", "country_name": "Syria", "year": 2009, "new_displacement": 0, "new_displacement_rounded": null, "total_displacement_rounded": 433000, "total_displacement": 433000}, {"iso3": "TCD", "country_name": "Chad", "year": 2009, "new_displacement": 0, "new_displacement_rounded": null, "total_displacement_rounded": 168000, "total_displacement": 168000}, {"iso3": "TGO", "country_name": "Togo", "year": 2009, "new_displacement": 0, "new_displacement_rounded": null, "total_displacement_rounded": 10000, "total_displacement": 10000}, {"iso3": "TKM", "country_name": "Turkmenistan", "year": 2009, "new_displacement": 0, "new_displacement_rounded": null, "total_displacement_rounded": 4000, "total_displacement": 4000}, {"iso3": "TLS", "country_name": "Timor-Leste", "year": 2009, "new_displacement": 100, "new_displacement_rounded": 100, "total_displacement_rounded": 400, "total_displacement": 400}, {"iso3": "TUR", "country_name": "T\u00fcrkiye", "year": 2009, "new_displacement": 0, "new_displacement_rounded": null, "total_displacement_rounded": 1000000, "total_displacement": 1000000}, {"iso3": "UGA", "country_name": "Uganda", "year": 2009, "new_displacement": 0, "new_displacement_rounded": null, "total_displacement_rounded": 435000, "total_displacement": 435000}, {"iso3": "UZB", "country_name": "Uzbekistan", "year": 2009, "new_displacement": 0, "new_displacement_rounded": null, "total_displacement_rounded": 3400, "total_displacement": 3400}, {"iso3": "XKX", "country_name": "Kosovo", "year": 2009, "new_displacement": 0, "new_displacement_rounded": null, "total_displacement_rounded": 20000, "total_displacement": 19700}, {"iso3": "YEM", "country_name": "Yemen", "year": 2009, "new_displacement": 150000, "new_displacement_rounded": 150000, "total_displacement_rounded": 175000, "total_displacement": 175000}, {"iso3": "ZWE", "country_name": "Zimbabwe", "year": 2009, "new_displacement": 15000, "new_displacement_rounded": 15000, "total_displacement_rounded": null, "total_displacement": null}, {"iso3": "AFG", "country_name": "Afghanistan", "year": 2010, "new_displacement": 102000, "new_displacement_rounded": 102000, "total_displacement_rounded": 352000, "total_displacement": 352000}, {"iso3": "AGO", "country_name": "Angola", "year": 2010, "new_displacement": 0, "new_displacement_rounded": null, "total_displacement_rounded": null, "total_displacement": null}, {"iso3": "ARM", "country_name": "Armenia", "year": 2010, "new_displacement": 0, "new_displacement_rounded": null, "total_displacement_rounded": 8400, "total_displacement": 8400}, {"iso3": "AZE", "country_name": "Azerbaijan", "year": 2010, "new_displacement": 0, "new_displacement_rounded": null, "total_displacement_rounded": 593000, "total_displacement": 592860}, {"iso3": "BDI", "country_name": "Burundi", "year": 2010, "new_displacement": 0, "new_displacement_rounded": null, "total_displacement_rounded": 100000, "total_displacement": 100000}, {"iso3": "BGD", "country_name": "Bangladesh", "year": 2010, "new_displacement": 3500, "new_displacement_rounded": 3500, "total_displacement_rounded": 426000, "total_displacement": 426490}, {"iso3": "BIH", "country_name": "Bosnia and Herzegovina", "year": 2010, "new_displacement": 0, "new_displacement_rounded": null, "total_displacement_rounded": 113000, "total_displacement": 113365}, {"iso3": "CAF", "country_name": "Central African Republic", "year": 2010, "new_displacement": 24000, "new_displacement_rounded": 24000, "total_displacement_rounded": 192000, "total_displacement": 192000}, {"iso3": "CIV", "country_name": "C\u00f4te d'Ivoire", "year": 2010, "new_displacement": 2736, "new_displacement_rounded": 2700, "total_displacement_rounded": 522000, "total_displacement": 521836}, {"iso3": "COD", "country_name": "Dem. Rep. Congo", "year": 2010, "new_displacement": 400000, "new_displacement_rounded": 400000, "total_displacement_rounded": 1700000, "total_displacement": 1700000}, {"iso3": "COG", "country_name": "Congo", "year": 2010, "new_displacement": 0, "new_displacement_rounded": null, "total_displacement_rounded": 7800, "total_displacement": 7800}, {"iso3": "COL", "country_name": "Colombia", "year": 2010, "new_displacement": 280041, "new_displacement_rounded": 280000, "total_displacement_rounded": 5196000, "total_displacement": 5195620}, {"iso3": "CYP", "country_name": "Cyprus", "year": 2010, "new_displacement": 0, "new_displacement_rounded": null, "total_displacement_rounded": 208000, "total_displacement": 208000}, {"iso3": "DZA", "country_name": "Algeria", "year": 2010, "new_displacement": 0, "new_displacement_rounded": null, "total_displacement_rounded": null, "total_displacement": null}, {"iso3": "ERI", "country_name": "Eritrea", "year": 2010, "new_displacement": 0, "new_displacement_rounded": null, "total_displacement_rounded": 10000, "total_displacement": 10000}, {"iso3": "ETH", "country_name": "Ethiopia", "year": 2010, "new_displacement": 0, "new_displacement_rounded": null, "total_displacement_rounded": 300000, "total_displacement": 300000}, {"iso3": "GEO", "country_name": "Georgia", "year": 2010, "new_displacement": 0, "new_displacement_rounded": null, "total_displacement_rounded": 257000, "total_displacement": 257000}, {"iso3": "GTM", "country_name": "Guatemala", "year": 2010, "new_displacement": 0, "new_displacement_rounded": null, "total_displacement_rounded": null, "total_displacement": null}, {"iso3": "HRV", "country_name": "Croatia", "year": 2010, "new_displacement": 0, "new_displacement_rounded": null, "total_displacement_rounded": 2300, "total_displacement": 2285}, {"iso3": "IDN", "country_name": "Indonesia", "year": 2010, "new_displacement": 35000, "new_displacement_rounded": 35000, "total_displacement_rounded": 200000, "total_displacement": 200000}, {"iso3": "IND", "country_name": "India", "year": 2010, "new_displacement": 106500, "new_displacement_rounded": 106000, "total_displacement_rounded": 650000, "total_displacement": 650000}, {"iso3": "IRQ", "country_name": "Iraq", "year": 2010, "new_displacement": 0, "new_displacement_rounded": null, "total_displacement_rounded": 2800000, "total_displacement": 2800000}, {"iso3": "ISR", "country_name": "Israel", "year": 2010, "new_displacement": null, "new_displacement_rounded": null, "total_displacement_rounded": null, "total_displacement": null}, {"iso3": "KEN", "country_name": "Kenya", "year": 2010, "new_displacement": 0, "new_displacement_rounded": null, "total_displacement_rounded": 250000, "total_displacement": 250000}, {"iso3": "KGZ", "country_name": "Kyrgyzstan", "year": 2010, "new_displacement": 300000, "new_displacement_rounded": 300000, "total_displacement_rounded": 75000, "total_displacement": 75000}, {"iso3": "LAO", "country_name": "Lao PDR", "year": 2010, "new_displacement": 4400, "new_displacement_rounded": 4400, "total_displacement_rounded": null, "total_displacement": null}, {"iso3": "LBN", "country_name": "Lebanon", "year": 2010, "new_displacement": 0, "new_displacement_rounded": null, "total_displacement_rounded": 75000, "total_displacement": 75000}, {"iso3": "LBR", "country_name": "Liberia", "year": 2010, "new_displacement": 0, "new_displacement_rounded": null, "total_displacement_rounded": 23000, "total_displacement": 23000}, {"iso3": "LKA", "country_name": "Sri Lanka", "year": 2010, "new_displacement": 0, "new_displacement_rounded": null, "total_displacement_rounded": 327000, "total_displacement": 327000}, {"iso3": "MEX", "country_name": "Mexico", "year": 2010, "new_displacement": 115000, "new_displacement_rounded": 115000, "total_displacement_rounded": 123000, "total_displacement": 123000}, {"iso3": "MKD", "country_name": "North Macedonia", "year": 2010, "new_displacement": 0, "new_displacement_rounded": null, "total_displacement_rounded": 640, "total_displacement": 644}, {"iso3": "MMR", "country_name": "Myanmar", "year": 2010, "new_displacement": 73000, "new_displacement_rounded": 73000, "total_displacement_rounded": 446000, "total_displacement": 446000}, {"iso3": "NER", "country_name": "Niger", "year": 2010, "new_displacement": 0, "new_displacement_rounded": null, "total_displacement_rounded": 11000, "total_displacement": 11000}, {"iso3": "NGA", "country_name": "Nigeria", "year": 2010, "new_displacement": 5000, "new_displacement_rounded": 5000, "total_displacement_rounded": null, "total_displacement": null}, {"iso3": "NPL", "country_name": "Nepal", "year": 2010, "new_displacement": 0, "new_displacement_rounded": null, "total_displacement_rounded": 50000, "total_displacement": 50000}, {"iso3": "PAK", "country_name": "Pakistan", "year": 2010, "new_displacement": 400000, "new_displacement_rounded": 400000, "total_displacement_rounded": 980000, "total_displacement": 980000}, {"iso3": "PER", "country_name": "Peru", "year": 2010, "new_displacement": 0, "new_displacement_rounded": null, "total_displacement_rounded": 150000, "total_displacement": 150000}, {"iso3": "PHL", "country_name": "Philippines", "year": 2010, "new_displacement": 70000, "new_displacement_rounded": 70000, "total_displacement_rounded": 15000, "total_displacement": 15000}, {"iso3": "PSE", "country_name": "Palestine", "year": 2010, "new_displacement": 600, "new_displacement_rounded": 600, "total_displacement_rounded": 160000, "total_displacement": 160000}, {"iso3": "RUS", "country_name": "Russia", "year": 2010, "new_displacement": 0, "new_displacement_rounded": null, "total_displacement_rounded": 78000, "total_displacement": 78000}, {"iso3": "RWA", "country_name": "Rwanda", "year": 2010, "new_displacement": 0, "new_displacement_rounded": null, "total_displacement_rounded": null, "total_displacement": null}, {"iso3": "SDN", "country_name": "Sudan", "year": 2010, "new_displacement": 490000, "new_displacement_rounded": 490000, "total_displacement_rounded": 4800000, "total_displacement": 4800000}, {"iso3": "SEN", "country_name": "Senegal", "year": 2010, "new_displacement": 4000, "new_displacement_rounded": 4000, "total_displacement_rounded": 24000, "total_displacement": 24000}, {"iso3": "SOM", "country_name": "Somalia", "year": 2010, "new_displacement": 300000, "new_displacement_rounded": 300000, "total_displacement_rounded": 1500000, "total_displacement": 1500000}, {"iso3": "SRB", "country_name": "Serbia", "year": 2010, "new_displacement": 0, "new_displacement_rounded": null, "total_displacement_rounded": 225000, "total_displacement": 225100}, {"iso3": "SYR", "country_name": "Syria", "year": 2010, "new_displacement": 0, "new_displacement_rounded": null, "total_displacement_rounded": 433000, "total_displacement": 433000}]}