{"last_updated": "2025-05-13", "count": 961, "next": "https://helix-tools-api.idmcdb.org/external-api/gidd/conflicts/?client_id=HDX00AKEYJUl17&client_id=HDX00AKEYJUl17&format=json&limit=100&offset=900", "previous": "https://helix-tools-api.idmcdb.org/external-api/gidd/conflicts/?client_id=HDX00AKEYJUl17&client_id=HDX00AKEYJUl17&format=json&limit=100&offset=700", "results": [{"iso3": "MMR", "country_name": "Myanmar", "year": 2022, "new_displacement": 1006395, "new_displacement_rounded": 1006000, "total_displacement_rounded": 1498000, "total_displacement": 1497518}, {"iso3": "NCL", "country_name": "New Caledonia", "year": 2022, "new_displacement": null, "new_displacement_rounded": null, "total_displacement_rounded": 150, "total_displacement": 151}, {"iso3": "NIC", "country_name": "Nicaragua", "year": 2022, "new_displacement": null, "new_displacement_rounded": null, "total_displacement_rounded": 1100, "total_displacement": 1077}, {"iso3": "NER", "country_name": "Niger", "year": 2022, "new_displacement": 100997, "new_displacement_rounded": 101000, "total_displacement_rounded": 372000, "total_displacement": 371707}, {"iso3": "NGA", "country_name": "Nigeria", "year": 2022, "new_displacement": 148348, "new_displacement_rounded": 148000, "total_displacement_rounded": 3646000, "total_displacement": 3645757}, {"iso3": "MKD", "country_name": "North Macedonia", "year": 2022, "new_displacement": null, "new_displacement_rounded": null, "total_displacement_rounded": 110, "total_displacement": 108}, {"iso3": "PAK", "country_name": "Pakistan", "year": 2022, "new_displacement": 680, "new_displacement_rounded": 680, "total_displacement_rounded": 16000, "total_displacement": 15890}, {"iso3": "PSE", "country_name": "Palestine", "year": 2022, "new_displacement": 1794, "new_displacement_rounded": 1800, "total_displacement_rounded": 12000, "total_displacement": 11796}, {"iso3": "PNG", "country_name": "Papua New Guinea", "year": 2022, "new_displacement": 60345, "new_displacement_rounded": 60000, "total_displacement_rounded": 83000, "total_displacement": 83183}, {"iso3": "PER", "country_name": "Peru", "year": 2022, "new_displacement": null, "new_displacement_rounded": null, "total_displacement_rounded": 73000, "total_displacement": 72590}, {"iso3": "PHL", "country_name": "Philippines", "year": 2022, "new_displacement": 122507, "new_displacement_rounded": 123000, "total_displacement_rounded": 98000, "total_displacement": 98457}, {"iso3": "RUS", "country_name": "Russia", "year": 2022, "new_displacement": 7054, "new_displacement_rounded": 7100, "total_displacement_rounded": 7200, "total_displacement": 7206}, {"iso3": "SEN", "country_name": "Senegal", "year": 2022, "new_displacement": null, "new_displacement_rounded": null, "total_displacement_rounded": 8400, "total_displacement": 8406}, {"iso3": "SRB", "country_name": "Serbia", "year": 2022, "new_displacement": null, "new_displacement_rounded": null, "total_displacement_rounded": 195000, "total_displacement": 194662}, {"iso3": "SLE", "country_name": "Sierra Leone", "year": 2022, "new_displacement": null, "new_displacement_rounded": null, "total_displacement_rounded": null, "total_displacement": 0}, {"iso3": "SLB", "country_name": "Solomon Islands", "year": 2022, "new_displacement": null, "new_displacement_rounded": null, "total_displacement_rounded": 1000, "total_displacement": 1000}, {"iso3": "SOM", "country_name": "Somalia", "year": 2022, "new_displacement": 621371, "new_displacement_rounded": 621000, "total_displacement_rounded": 3864000, "total_displacement": 3864000}, {"iso3": "SSD", "country_name": "South Sudan", "year": 2022, "new_displacement": 336694, "new_displacement_rounded": 337000, "total_displacement_rounded": 1475000, "total_displacement": 1474679}, {"iso3": "LKA", "country_name": "Sri Lanka", "year": 2022, "new_displacement": null, "new_displacement_rounded": null, "total_displacement_rounded": 11000, "total_displacement": 11063}, {"iso3": "SDN", "country_name": "Sudan", "year": 2022, "new_displacement": 313683, "new_displacement_rounded": 314000, "total_displacement_rounded": 3553000, "total_displacement": 3552718}, {"iso3": "SYR", "country_name": "Syria", "year": 2022, "new_displacement": 170916, "new_displacement_rounded": 171000, "total_displacement_rounded": 6865000, "total_displacement": 6865308}, {"iso3": "TGO", "country_name": "Togo", "year": 2022, "new_displacement": 2289, "new_displacement_rounded": 2300, "total_displacement_rounded": 2300, "total_displacement": 2289}, {"iso3": "UGA", "country_name": "Uganda", "year": 2022, "new_displacement": 1974, "new_displacement_rounded": 2000, "total_displacement_rounded": 4500, "total_displacement": 4543}, {"iso3": "UKR", "country_name": "Ukraine", "year": 2022, "new_displacement": 16870323, "new_displacement_rounded": 16870000, "total_displacement_rounded": 5914000, "total_displacement": 5913638}, {"iso3": "YEM", "country_name": "Yemen", "year": 2022, "new_displacement": 275814, "new_displacement_rounded": 276000, "total_displacement_rounded": 4523000, "total_displacement": 4523022}, {"iso3": "AB9", "country_name": "Abyei Area", "year": 2023, "new_displacement": 7947, "new_displacement_rounded": 7900, "total_displacement_rounded": 42000, "total_displacement": 42213}, {"iso3": "AFG", "country_name": "Afghanistan", "year": 2023, "new_displacement": null, "new_displacement_rounded": null, "total_displacement_rounded": 4187000, "total_displacement": 4186882}, {"iso3": "ARM", "country_name": "Armenia", "year": 2023, "new_displacement": null, "new_displacement_rounded": null, "total_displacement_rounded": 7600, "total_displacement": 7600}, {"iso3": "AZE", "country_name": "Azerbaijan", "year": 2023, "new_displacement": 5070, "new_displacement_rounded": 5100, "total_displacement_rounded": 658000, "total_displacement": 657749}, {"iso3": "BGD", "country_name": "Bangladesh", "year": 2023, "new_displacement": null, "new_displacement_rounded": null, "total_displacement_rounded": 426000, "total_displacement": 426070}, {"iso3": "BEN", "country_name": "Benin", "year": 2023, "new_displacement": 6502, "new_displacement_rounded": 6500, "total_displacement_rounded": 8800, "total_displacement": 8785}, {"iso3": "BIH", "country_name": "Bosnia and Herzegovina", "year": 2023, "new_displacement": null, "new_displacement_rounded": null, "total_displacement_rounded": 95000, "total_displacement": 95035}, {"iso3": "BRA", "country_name": "Brazil", "year": 2023, "new_displacement": 15602, "new_displacement_rounded": 16000, "total_displacement_rounded": 16000, "total_displacement": 15602}, {"iso3": "BFA", "country_name": "Burkina Faso", "year": 2023, "new_displacement": 713417, "new_displacement_rounded": 713000, "total_displacement_rounded": 2063000, "total_displacement": 2062534}, {"iso3": "BDI", "country_name": "Burundi", "year": 2023, "new_displacement": 226, "new_displacement_rounded": 230, "total_displacement_rounded": 8100, "total_displacement": 8124}, {"iso3": "CMR", "country_name": "Cameroon", "year": 2023, "new_displacement": 164047, "new_displacement_rounded": 164000, "total_displacement_rounded": 1044000, "total_displacement": 1043924}, {"iso3": "CAF", "country_name": "Central African Republic", "year": 2023, "new_displacement": 214443, "new_displacement_rounded": 214000, "total_displacement_rounded": 512000, "total_displacement": 511803}, {"iso3": "TCD", "country_name": "Chad", "year": 2023, "new_displacement": 118390, "new_displacement_rounded": 118000, "total_displacement_rounded": 452000, "total_displacement": 451810}, {"iso3": "COL", "country_name": "Colombia", "year": 2023, "new_displacement": 329220, "new_displacement_rounded": 329000, "total_displacement_rounded": 5077000, "total_displacement": 5077150}, {"iso3": "COG", "country_name": "Congo", "year": 2023, "new_displacement": null, "new_displacement_rounded": null, "total_displacement_rounded": null, "total_displacement": 0}, {"iso3": "CIV", "country_name": "C\u00f4te d'Ivoire", "year": 2023, "new_displacement": null, "new_displacement_rounded": null, "total_displacement_rounded": null, "total_displacement": 0}, {"iso3": "CYP", "country_name": "Cyprus", "year": 2023, "new_displacement": null, "new_displacement_rounded": null, "total_displacement_rounded": 248000, "total_displacement": 248325}, {"iso3": "COD", "country_name": "Dem. Rep. Congo", "year": 2023, "new_displacement": 3772340, "new_displacement_rounded": 3772000, "total_displacement_rounded": 6737000, "total_displacement": 6737292}, {"iso3": "SLV", "country_name": "El Salvador", "year": 2023, "new_displacement": 66000, "new_displacement_rounded": 66000, "total_displacement_rounded": 49000, "total_displacement": 48633}, {"iso3": "ETH", "country_name": "Ethiopia", "year": 2023, "new_displacement": 794266, "new_displacement_rounded": 794000, "total_displacement_rounded": 2852000, "total_displacement": 2852493}, {"iso3": "GMB", "country_name": "Gambia", "year": 2023, "new_displacement": null, "new_displacement_rounded": null, "total_displacement_rounded": 5700, "total_displacement": 5654}, {"iso3": "GEO", "country_name": "Georgia", "year": 2023, "new_displacement": null, "new_displacement_rounded": null, "total_displacement_rounded": 296000, "total_displacement": 295872}, {"iso3": "GHA", "country_name": "Ghana", "year": 2023, "new_displacement": 679, "new_displacement_rounded": 680, "total_displacement_rounded": 3800, "total_displacement": 3837}, {"iso3": "GTM", "country_name": "Guatemala", "year": 2023, "new_displacement": 575, "new_displacement_rounded": 580, "total_displacement_rounded": 242000, "total_displacement": 242386}, {"iso3": "HTI", "country_name": "Haiti", "year": 2023, "new_displacement": 245022, "new_displacement_rounded": 245000, "total_displacement_rounded": 311000, "total_displacement": 310659}, {"iso3": "HND", "country_name": "Honduras", "year": 2023, "new_displacement": 5068, "new_displacement_rounded": 5100, "total_displacement_rounded": 101000, "total_displacement": 100637}, {"iso3": "IND", "country_name": "India", "year": 2023, "new_displacement": 66698, "new_displacement_rounded": 67000, "total_displacement_rounded": 517000, "total_displacement": 516655}, {"iso3": "IDN", "country_name": "Indonesia", "year": 2023, "new_displacement": 3720, "new_displacement_rounded": 3700, "total_displacement_rounded": 48000, "total_displacement": 48242}, {"iso3": "IRQ", "country_name": "Iraq", "year": 2023, "new_displacement": 21240, "new_displacement_rounded": 21000, "total_displacement_rounded": 1124000, "total_displacement": 1123663}, {"iso3": "ISR", "country_name": "Israel", "year": 2023, "new_displacement": 202736, "new_displacement_rounded": 203000, "total_displacement_rounded": 200000, "total_displacement": 200000}, {"iso3": "KEN", "country_name": "Kenya", "year": 2023, "new_displacement": 7717, "new_displacement_rounded": 7700, "total_displacement_rounded": 38000, "total_displacement": 37663}, {"iso3": "XKX", "country_name": "Kosovo", "year": 2023, "new_displacement": null, "new_displacement_rounded": null, "total_displacement_rounded": 16000, "total_displacement": 15641}, {"iso3": "LBN", "country_name": "Lebanon", "year": 2023, "new_displacement": 139479, "new_displacement_rounded": 139000, "total_displacement_rounded": 74000, "total_displacement": 74471}, {"iso3": "LBY", "country_name": "Libya", "year": 2023, "new_displacement": 1702, "new_displacement_rounded": 1700, "total_displacement_rounded": 119000, "total_displacement": 119275}, {"iso3": "MDG", "country_name": "Madagascar", "year": 2023, "new_displacement": null, "new_displacement_rounded": null, "total_displacement_rounded": null, "total_displacement": 0}, {"iso3": "MLI", "country_name": "Mali", "year": 2023, "new_displacement": 183869, "new_displacement_rounded": 184000, "total_displacement_rounded": 344000, "total_displacement": 344061}, {"iso3": "MEX", "country_name": "Mexico", "year": 2023, "new_displacement": 11041, "new_displacement_rounded": 11000, "total_displacement_rounded": 390000, "total_displacement": 390250}, {"iso3": "MOZ", "country_name": "Mozambique", "year": 2023, "new_displacement": 40742, "new_displacement_rounded": 41000, "total_displacement_rounded": 592000, "total_displacement": 591862}, {"iso3": "MMR", "country_name": "Myanmar", "year": 2023, "new_displacement": 1297900, "new_displacement_rounded": 1298000, "total_displacement_rounded": 2625000, "total_displacement": 2625000}, {"iso3": "NCL", "country_name": "New Caledonia", "year": 2023, "new_displacement": null, "new_displacement_rounded": null, "total_displacement_rounded": 150, "total_displacement": 151}, {"iso3": "NIC", "country_name": "Nicaragua", "year": 2023, "new_displacement": 283, "new_displacement_rounded": 280, "total_displacement_rounded": 1300, "total_displacement": 1283}, {"iso3": "NER", "country_name": "Niger", "year": 2023, "new_displacement": 180614, "new_displacement_rounded": 181000, "total_displacement_rounded": 347000, "total_displacement": 346672}, {"iso3": "NGA", "country_name": "Nigeria", "year": 2023, "new_displacement": 290798, "new_displacement_rounded": 291000, "total_displacement_rounded": 3340000, "total_displacement": 3339951}, {"iso3": "MKD", "country_name": "North Macedonia", "year": 2023, "new_displacement": null, "new_displacement_rounded": null, "total_displacement_rounded": 110, "total_displacement": 108}, {"iso3": "PAK", "country_name": "Pakistan", "year": 2023, "new_displacement": 2788, "new_displacement_rounded": 2800, "total_displacement_rounded": 21000, "total_displacement": 20881}, {"iso3": "PSE", "country_name": "Palestine", "year": 2023, "new_displacement": 3435904, "new_displacement_rounded": 3436000, "total_displacement_rounded": 1707000, "total_displacement": 1707498}, {"iso3": "PNG", "country_name": "Papua New Guinea", "year": 2023, "new_displacement": 2013, "new_displacement_rounded": 2000, "total_displacement_rounded": 84000, "total_displacement": 84238}, {"iso3": "PER", "country_name": "Peru", "year": 2023, "new_displacement": null, "new_displacement_rounded": null, "total_displacement_rounded": 75000, "total_displacement": 74660}, {"iso3": "PHL", "country_name": "Philippines", "year": 2023, "new_displacement": 161407, "new_displacement_rounded": 161000, "total_displacement_rounded": 110000, "total_displacement": 109854}, {"iso3": "RUS", "country_name": "Russia", "year": 2023, "new_displacement": 60006, "new_displacement_rounded": 60000, "total_displacement_rounded": 60000, "total_displacement": 60140}, {"iso3": "SEN", "country_name": "Senegal", "year": 2023, "new_displacement": null, "new_displacement_rounded": null, "total_displacement_rounded": 8400, "total_displacement": 8406}, {"iso3": "SRB", "country_name": "Serbia", "year": 2023, "new_displacement": null, "new_displacement_rounded": null, "total_displacement_rounded": 194000, "total_displacement": 194171}, {"iso3": "SLE", "country_name": "Sierra Leone", "year": 2023, "new_displacement": null, "new_displacement_rounded": null, "total_displacement_rounded": null, "total_displacement": 0}, {"iso3": "SLB", "country_name": "Solomon Islands", "year": 2023, "new_displacement": null, "new_displacement_rounded": null, "total_displacement_rounded": 1000, "total_displacement": 1000}, {"iso3": "SOM", "country_name": "Somalia", "year": 2023, "new_displacement": 673034, "new_displacement_rounded": 673000, "total_displacement_rounded": 3862000, "total_displacement": 3861643}, {"iso3": "ZAF", "country_name": "South Africa", "year": 2023, "new_displacement": 621, "new_displacement_rounded": 620, "total_displacement_rounded": 620, "total_displacement": 621}, {"iso3": "SSD", "country_name": "South Sudan", "year": 2023, "new_displacement": 282396, "new_displacement_rounded": 282000, "total_displacement_rounded": 1121000, "total_displacement": 1121084}, {"iso3": "LKA", "country_name": "Sri Lanka", "year": 2023, "new_displacement": null, "new_displacement_rounded": null, "total_displacement_rounded": 11000, "total_displacement": 11063}, {"iso3": "SDN", "country_name": "Sudan", "year": 2023, "new_displacement": 6038666, "new_displacement_rounded": 6039000, "total_displacement_rounded": 9053000, "total_displacement": 9052822}, {"iso3": "SYR", "country_name": "Syria", "year": 2023, "new_displacement": 174420, "new_displacement_rounded": 174000, "total_displacement_rounded": 7248000, "total_displacement": 7248188}, {"iso3": "TGO", "country_name": "Togo", "year": 2023, "new_displacement": 12421, "new_displacement_rounded": 12000, "total_displacement_rounded": 18000, "total_displacement": 18429}, {"iso3": "TUR", "country_name": "T\u00fcrkiye", "year": 2023, "new_displacement": null, "new_displacement_rounded": null, "total_displacement_rounded": null, "total_displacement": 0}, {"iso3": "UGA", "country_name": "Uganda", "year": 2023, "new_displacement": 635, "new_displacement_rounded": 640, "total_displacement_rounded": 4800, "total_displacement": 4838}, {"iso3": "UKR", "country_name": "Ukraine", "year": 2023, "new_displacement": 713911, "new_displacement_rounded": 714000, "total_displacement_rounded": 3689000, "total_displacement": 3689088}, {"iso3": "YEM", "country_name": "Yemen", "year": 2023, "new_displacement": 79828, "new_displacement_rounded": 80000, "total_displacement_rounded": 4516000, "total_displacement": 4516341}, {"iso3": "AB9", "country_name": "Abyei Area", "year": 2024, "new_displacement": 20756, "new_displacement_rounded": 21000, "total_displacement_rounded": 42000, "total_displacement": 42213}, {"iso3": "AFG", "country_name": "Afghanistan", "year": 2024, "new_displacement": 3219, "new_displacement_rounded": 3200, "total_displacement_rounded": 4187000, "total_displacement": 4186882}, {"iso3": "ARM", "country_name": "Armenia", "year": 2024, "new_displacement": null, "new_displacement_rounded": null, "total_displacement_rounded": null, "total_displacement": 0}, {"iso3": "AZE", "country_name": "Azerbaijan", "year": 2024, "new_displacement": null, "new_displacement_rounded": null, "total_displacement_rounded": 658000, "total_displacement": 657996}, {"iso3": "BGD", "country_name": "Bangladesh", "year": 2024, "new_displacement": 2755, "new_displacement_rounded": 2800, "total_displacement_rounded": 585000, "total_displacement": 584836}, {"iso3": "BEN", "country_name": "Benin", "year": 2024, "new_displacement": null, "new_displacement_rounded": null, "total_displacement_rounded": 13000, "total_displacement": 12501}, {"iso3": "BIH", "country_name": "Bosnia and Herzegovina", "year": 2024, "new_displacement": null, "new_displacement_rounded": null, "total_displacement_rounded": 95000, "total_displacement": 94796}, {"iso3": "BRA", "country_name": "Brazil", "year": 2024, "new_displacement": 19043, "new_displacement_rounded": 19000, "total_displacement_rounded": 19000, "total_displacement": 19043}, {"iso3": "BFA", "country_name": "Burkina Faso", "year": 2024, "new_displacement": 379980, "new_displacement_rounded": 380000, "total_displacement_rounded": 2063000, "total_displacement": 2062534}, {"iso3": "BDI", "country_name": "Burundi", "year": 2024, "new_displacement": 362, "new_displacement_rounded": 360, "total_displacement_rounded": 6900, "total_displacement": 6877}]}
