{"last_updated": "2025-05-13", "count": 961, "next": "https://helix-tools-api.idmcdb.org/external-api/gidd/conflicts/?client_id=HDX00AKEYJUl17&client_id=HDX00AKEYJUl17&format=json&limit=100&offset=300", "previous": "https://helix-tools-api.idmcdb.org/external-api/gidd/conflicts/?client_id=HDX00AKEYJUl17&client_id=HDX00AKEYJUl17&format=json&limit=100&offset=100", "results": [{"iso3": "MKD", "country_name": "North Macedonia", "year": 2012, "new_displacement": 0, "new_displacement_rounded": null, "total_displacement_rounded": 620, "total_displacement": 621}, {"iso3": "MLI", "country_name": "Mali", "year": 2012, "new_displacement": 227000, "new_displacement_rounded": 227000, "total_displacement_rounded": 230000, "total_displacement": 230000}, {"iso3": "MMR", "country_name": "Myanmar", "year": 2012, "new_displacement": 166000, "new_displacement_rounded": 166000, "total_displacement_rounded": 450000, "total_displacement": 450000}, {"iso3": "NER", "country_name": "Niger", "year": 2012, "new_displacement": 0, "new_displacement_rounded": null, "total_displacement_rounded": 11000, "total_displacement": 11000}, {"iso3": "NGA", "country_name": "Nigeria", "year": 2012, "new_displacement": 63000, "new_displacement_rounded": 63000, "total_displacement_rounded": null, "total_displacement": null}, {"iso3": "NPL", "country_name": "Nepal", "year": 2012, "new_displacement": 0, "new_displacement_rounded": null, "total_displacement_rounded": 50000, "total_displacement": 50000}, {"iso3": "PAK", "country_name": "Pakistan", "year": 2012, "new_displacement": 412000, "new_displacement_rounded": 412000, "total_displacement_rounded": 758000, "total_displacement": 758000}, {"iso3": "PER", "country_name": "Peru", "year": 2012, "new_displacement": 0, "new_displacement_rounded": null, "total_displacement_rounded": 150000, "total_displacement": 150000}, {"iso3": "PHL", "country_name": "Philippines", "year": 2012, "new_displacement": 178000, "new_displacement_rounded": 178000, "total_displacement_rounded": null, "total_displacement": null}, {"iso3": "PSE", "country_name": "Palestine", "year": 2012, "new_displacement": 12000, "new_displacement_rounded": 12000, "total_displacement_rounded": 144000, "total_displacement": 144500}, {"iso3": "RUS", "country_name": "Russia", "year": 2012, "new_displacement": 0, "new_displacement_rounded": null, "total_displacement_rounded": 29000, "total_displacement": 29000}, {"iso3": "SDN", "country_name": "Sudan", "year": 2012, "new_displacement": 500000, "new_displacement_rounded": 500000, "total_displacement_rounded": 3000000, "total_displacement": 3000000}, {"iso3": "SEN", "country_name": "Senegal", "year": 2012, "new_displacement": 168, "new_displacement_rounded": 170, "total_displacement_rounded": 22000, "total_displacement": 22000}, {"iso3": "SOM", "country_name": "Somalia", "year": 2012, "new_displacement": 185000, "new_displacement_rounded": 185000, "total_displacement_rounded": 1350000, "total_displacement": 1350000}, {"iso3": "SRB", "country_name": "Serbia", "year": 2012, "new_displacement": 0, "new_displacement_rounded": null, "total_displacement_rounded": 225000, "total_displacement": 225000}, {"iso3": "SSD", "country_name": "South Sudan", "year": 2012, "new_displacement": 190473, "new_displacement_rounded": 190000, "total_displacement_rounded": 350000, "total_displacement": 350000}, {"iso3": "SYR", "country_name": "Syria", "year": 2012, "new_displacement": 2400000, "new_displacement_rounded": 2400000, "total_displacement_rounded": 3000000, "total_displacement": 3000000}, {"iso3": "TCD", "country_name": "Chad", "year": 2012, "new_displacement": 0, "new_displacement_rounded": null, "total_displacement_rounded": 90000, "total_displacement": 90000}, {"iso3": "TGO", "country_name": "Togo", "year": 2012, "new_displacement": null, "new_displacement_rounded": null, "total_displacement_rounded": 10000, "total_displacement": 10000}, {"iso3": "THA", "country_name": "Thailand", "year": 2012, "new_displacement": 0, "new_displacement_rounded": null, "total_displacement_rounded": 35000, "total_displacement": 35000}, {"iso3": "TKM", "country_name": "Turkmenistan", "year": 2012, "new_displacement": 0, "new_displacement_rounded": null, "total_displacement_rounded": 4000, "total_displacement": 4000}, {"iso3": "TLS", "country_name": "Timor-Leste", "year": 2012, "new_displacement": 0, "new_displacement_rounded": null, "total_displacement_rounded": 900, "total_displacement": 900}, {"iso3": "TUR", "country_name": "T\u00fcrkiye", "year": 2012, "new_displacement": 200, "new_displacement_rounded": 200, "total_displacement_rounded": 1000000, "total_displacement": 1000000}, {"iso3": "UGA", "country_name": "Uganda", "year": 2012, "new_displacement": 0, "new_displacement_rounded": null, "total_displacement_rounded": 30000, "total_displacement": 30000}, {"iso3": "UZB", "country_name": "Uzbekistan", "year": 2012, "new_displacement": 0, "new_displacement_rounded": null, "total_displacement_rounded": 3400, "total_displacement": 3400}, {"iso3": "XKX", "country_name": "Kosovo", "year": 2012, "new_displacement": 0, "new_displacement_rounded": null, "total_displacement_rounded": 18000, "total_displacement": 17738}, {"iso3": "YEM", "country_name": "Yemen", "year": 2012, "new_displacement": 132000, "new_displacement_rounded": 132000, "total_displacement_rounded": 385000, "total_displacement": 385000}, {"iso3": "ZWE", "country_name": "Zimbabwe", "year": 2012, "new_displacement": 280, "new_displacement_rounded": 280, "total_displacement_rounded": null, "total_displacement": null}, {"iso3": "AFG", "country_name": "Afghanistan", "year": 2013, "new_displacement": 124000, "new_displacement_rounded": 124000, "total_displacement_rounded": 631000, "total_displacement": 631000}, {"iso3": "AGO", "country_name": "Angola", "year": 2013, "new_displacement": 0, "new_displacement_rounded": null, "total_displacement_rounded": null, "total_displacement": null}, {"iso3": "ARM", "country_name": "Armenia", "year": 2013, "new_displacement": 0, "new_displacement_rounded": null, "total_displacement_rounded": 8400, "total_displacement": 8400}, {"iso3": "AZE", "country_name": "Azerbaijan", "year": 2013, "new_displacement": 0, "new_displacement_rounded": null, "total_displacement_rounded": 543000, "total_displacement": 543400}, {"iso3": "BDI", "country_name": "Burundi", "year": 2013, "new_displacement": 0, "new_displacement_rounded": null, "total_displacement_rounded": 79000, "total_displacement": 78900}, {"iso3": "BGD", "country_name": "Bangladesh", "year": 2013, "new_displacement": 0, "new_displacement_rounded": null, "total_displacement_rounded": 426000, "total_displacement": 426490}, {"iso3": "BIH", "country_name": "Bosnia and Herzegovina", "year": 2013, "new_displacement": 0, "new_displacement_rounded": null, "total_displacement_rounded": 103000, "total_displacement": 103400}, {"iso3": "CAF", "country_name": "Central African Republic", "year": 2013, "new_displacement": 935000, "new_displacement_rounded": 935000, "total_displacement_rounded": 935000, "total_displacement": 935000}, {"iso3": "CIV", "country_name": "C\u00f4te d'Ivoire", "year": 2013, "new_displacement": 29500, "new_displacement_rounded": 30000, "total_displacement_rounded": 80000, "total_displacement": 80000}, {"iso3": "COD", "country_name": "Dem. Rep. Congo", "year": 2013, "new_displacement": 1000000, "new_displacement_rounded": 1000000, "total_displacement_rounded": 2964000, "total_displacement": 2963700}, {"iso3": "COG", "country_name": "Congo", "year": 2013, "new_displacement": 0, "new_displacement_rounded": null, "total_displacement_rounded": 7800, "total_displacement": 7800}, {"iso3": "COL", "country_name": "Colombia", "year": 2013, "new_displacement": 156918, "new_displacement_rounded": 157000, "total_displacement_rounded": 5700000, "total_displacement": 5700000}, {"iso3": "CYP", "country_name": "Cyprus", "year": 2013, "new_displacement": 0, "new_displacement_rounded": null, "total_displacement_rounded": 212000, "total_displacement": 212400}, {"iso3": "DZA", "country_name": "Algeria", "year": 2013, "new_displacement": 0, "new_displacement_rounded": null, "total_displacement_rounded": null, "total_displacement": null}, {"iso3": "ERI", "country_name": "Eritrea", "year": 2013, "new_displacement": 0, "new_displacement_rounded": null, "total_displacement_rounded": 10000, "total_displacement": 10000}, {"iso3": "ETH", "country_name": "Ethiopia", "year": 2013, "new_displacement": 178800, "new_displacement_rounded": 179000, "total_displacement_rounded": 316000, "total_displacement": 316000}, {"iso3": "GEO", "country_name": "Georgia", "year": 2013, "new_displacement": 0, "new_displacement_rounded": null, "total_displacement_rounded": 207000, "total_displacement": 206600}, {"iso3": "GTM", "country_name": "Guatemala", "year": 2013, "new_displacement": 0, "new_displacement_rounded": null, "total_displacement_rounded": 242000, "total_displacement": 242000}, {"iso3": "HRV", "country_name": "Croatia", "year": 2013, "new_displacement": 0, "new_displacement_rounded": null, "total_displacement_rounded": null, "total_displacement": null}, {"iso3": "IDN", "country_name": "Indonesia", "year": 2013, "new_displacement": 3000, "new_displacement_rounded": 3000, "total_displacement_rounded": 90000, "total_displacement": 90000}, {"iso3": "IND", "country_name": "India", "year": 2013, "new_displacement": 64000, "new_displacement_rounded": 64000, "total_displacement_rounded": 526000, "total_displacement": 526000}, {"iso3": "IRQ", "country_name": "Iraq", "year": 2013, "new_displacement": 11800, "new_displacement_rounded": 12000, "total_displacement_rounded": 2100000, "total_displacement": 2100000}, {"iso3": "ISR", "country_name": "Israel", "year": 2013, "new_displacement": 0, "new_displacement_rounded": null, "total_displacement_rounded": null, "total_displacement": null}, {"iso3": "KEN", "country_name": "Kenya", "year": 2013, "new_displacement": 55000, "new_displacement_rounded": 55000, "total_displacement_rounded": 412000, "total_displacement": 412000}, {"iso3": "KGZ", "country_name": "Kyrgyzstan", "year": 2013, "new_displacement": 0, "new_displacement_rounded": null, "total_displacement_rounded": null, "total_displacement": null}, {"iso3": "LAO", "country_name": "Lao PDR", "year": 2013, "new_displacement": 0, "new_displacement_rounded": null, "total_displacement_rounded": null, "total_displacement": null}, {"iso3": "LBN", "country_name": "Lebanon", "year": 2013, "new_displacement": 0, "new_displacement_rounded": null, "total_displacement_rounded": 20000, "total_displacement": 20000}, {"iso3": "LBR", "country_name": "Liberia", "year": 2013, "new_displacement": 10000, "new_displacement_rounded": 10000, "total_displacement_rounded": 23000, "total_displacement": 23000}, {"iso3": "LBY", "country_name": "Libya", "year": 2013, "new_displacement": 0, "new_displacement_rounded": null, "total_displacement_rounded": 59000, "total_displacement": 59400}, {"iso3": "LKA", "country_name": "Sri Lanka", "year": 2013, "new_displacement": 0, "new_displacement_rounded": null, "total_displacement_rounded": 90000, "total_displacement": 90000}, {"iso3": "MEX", "country_name": "Mexico", "year": 2013, "new_displacement": 20000, "new_displacement_rounded": 20000, "total_displacement_rounded": 160000, "total_displacement": 160000}, {"iso3": "MKD", "country_name": "North Macedonia", "year": 2013, "new_displacement": 0, "new_displacement_rounded": null, "total_displacement_rounded": 330, "total_displacement": 330}, {"iso3": "MLI", "country_name": "Mali", "year": 2013, "new_displacement": 123000, "new_displacement_rounded": 123000, "total_displacement_rounded": 218000, "total_displacement": 218000}, {"iso3": "MMR", "country_name": "Myanmar", "year": 2013, "new_displacement": 53946, "new_displacement_rounded": 54000, "total_displacement_rounded": 641000, "total_displacement": 640900}, {"iso3": "NER", "country_name": "Niger", "year": 2013, "new_displacement": 0, "new_displacement_rounded": null, "total_displacement_rounded": 11000, "total_displacement": 11000}, {"iso3": "NGA", "country_name": "Nigeria", "year": 2013, "new_displacement": 470500, "new_displacement_rounded": 470000, "total_displacement_rounded": 3300000, "total_displacement": 3300000}, {"iso3": "NPL", "country_name": "Nepal", "year": 2013, "new_displacement": 0, "new_displacement_rounded": null, "total_displacement_rounded": 50000, "total_displacement": 50000}, {"iso3": "PAK", "country_name": "Pakistan", "year": 2013, "new_displacement": 140000, "new_displacement_rounded": 140000, "total_displacement_rounded": 747000, "total_displacement": 746700}, {"iso3": "PER", "country_name": "Peru", "year": 2013, "new_displacement": 0, "new_displacement_rounded": null, "total_displacement_rounded": 150000, "total_displacement": 150000}, {"iso3": "PHL", "country_name": "Philippines", "year": 2013, "new_displacement": 327351, "new_displacement_rounded": 327000, "total_displacement_rounded": 116000, "total_displacement": 115800}, {"iso3": "PSE", "country_name": "Palestine", "year": 2013, "new_displacement": 1100, "new_displacement_rounded": 1100, "total_displacement_rounded": 146000, "total_displacement": 146000}, {"iso3": "RUS", "country_name": "Russia", "year": 2013, "new_displacement": 0, "new_displacement_rounded": null, "total_displacement_rounded": 35000, "total_displacement": 34900}, {"iso3": "SDN", "country_name": "Sudan", "year": 2013, "new_displacement": 470000, "new_displacement_rounded": 470000, "total_displacement_rounded": 2427000, "total_displacement": 2426700}, {"iso3": "SEN", "country_name": "Senegal", "year": 2013, "new_displacement": 0, "new_displacement_rounded": null, "total_displacement_rounded": 24000, "total_displacement": 24000}, {"iso3": "SOM", "country_name": "Somalia", "year": 2013, "new_displacement": 80000, "new_displacement_rounded": 80000, "total_displacement_rounded": 1100000, "total_displacement": 1100000}, {"iso3": "SRB", "country_name": "Serbia", "year": 2013, "new_displacement": 0, "new_displacement_rounded": null, "total_displacement_rounded": 97000, "total_displacement": 97300}, {"iso3": "SSD", "country_name": "South Sudan", "year": 2013, "new_displacement": 383000, "new_displacement_rounded": 383000, "total_displacement_rounded": 383000, "total_displacement": 383000}, {"iso3": "SYR", "country_name": "Syria", "year": 2013, "new_displacement": 3500000, "new_displacement_rounded": 3500000, "total_displacement_rounded": 6500000, "total_displacement": 6500000}, {"iso3": "TCD", "country_name": "Chad", "year": 2013, "new_displacement": 0, "new_displacement_rounded": null, "total_displacement_rounded": 90000, "total_displacement": 90000}, {"iso3": "TGO", "country_name": "Togo", "year": 2013, "new_displacement": 0, "new_displacement_rounded": null, "total_displacement_rounded": 10000, "total_displacement": 10000}, {"iso3": "THA", "country_name": "Thailand", "year": 2013, "new_displacement": 100, "new_displacement_rounded": 100, "total_displacement_rounded": 35000, "total_displacement": 35000}, {"iso3": "TKM", "country_name": "Turkmenistan", "year": 2013, "new_displacement": 0, "new_displacement_rounded": null, "total_displacement_rounded": 4000, "total_displacement": 4000}, {"iso3": "TLS", "country_name": "Timor-Leste", "year": 2013, "new_displacement": 0, "new_displacement_rounded": null, "total_displacement_rounded": 900, "total_displacement": 900}, {"iso3": "TUR", "country_name": "T\u00fcrkiye", "year": 2013, "new_displacement": 0, "new_displacement_rounded": null, "total_displacement_rounded": 954000, "total_displacement": 953700}, {"iso3": "UGA", "country_name": "Uganda", "year": 2013, "new_displacement": 0, "new_displacement_rounded": null, "total_displacement_rounded": 30000, "total_displacement": 29800}, {"iso3": "UZB", "country_name": "Uzbekistan", "year": 2013, "new_displacement": 0, "new_displacement_rounded": null, "total_displacement_rounded": 3400, "total_displacement": 3400}, {"iso3": "XKX", "country_name": "Kosovo", "year": 2013, "new_displacement": 0, "new_displacement_rounded": null, "total_displacement_rounded": 17000, "total_displacement": 17300}, {"iso3": "YEM", "country_name": "Yemen", "year": 2013, "new_displacement": 20000, "new_displacement_rounded": 20000, "total_displacement_rounded": 307000, "total_displacement": 307000}, {"iso3": "ZWE", "country_name": "Zimbabwe", "year": 2013, "new_displacement": 0, "new_displacement_rounded": null, "total_displacement_rounded": null, "total_displacement": null}, {"iso3": "AB9", "country_name": "Abyei Area", "year": 2014, "new_displacement": 0, "new_displacement_rounded": null, "total_displacement_rounded": 20000, "total_displacement": 20000}, {"iso3": "AFG", "country_name": "Afghanistan", "year": 2014, "new_displacement": 156193, "new_displacement_rounded": 156000, "total_displacement_rounded": 805000, "total_displacement": 805409}, {"iso3": "ARM", "country_name": "Armenia", "year": 2014, "new_displacement": 0, "new_displacement_rounded": null, "total_displacement_rounded": 8400, "total_displacement": 8400}, {"iso3": "AZE", "country_name": "Azerbaijan", "year": 2014, "new_displacement": 0, "new_displacement_rounded": null, "total_displacement_rounded": 569000, "total_displacement": 568892}, {"iso3": "BDI", "country_name": "Burundi", "year": 2014, "new_displacement": 0, "new_displacement_rounded": null, "total_displacement_rounded": 78000, "total_displacement": 77600}, {"iso3": "BGD", "country_name": "Bangladesh", "year": 2014, "new_displacement": 0, "new_displacement_rounded": null, "total_displacement_rounded": 426000, "total_displacement": 426490}, {"iso3": "BIH", "country_name": "Bosnia and Herzegovina", "year": 2014, "new_displacement": 0, "new_displacement_rounded": null, "total_displacement_rounded": 100000, "total_displacement": 100400}, {"iso3": "CAF", "country_name": "Central African Republic", "year": 2014, "new_displacement": 172700, "new_displacement_rounded": 173000, "total_displacement_rounded": 438000, "total_displacement": 438500}, {"iso3": "CIV", "country_name": "C\u00f4te d'Ivoire", "year": 2014, "new_displacement": 5500, "new_displacement_rounded": 5500, "total_displacement_rounded": 301000, "total_displacement": 300900}, {"iso3": "CMR", "country_name": "Cameroon", "year": 2014, "new_displacement": 40000, "new_displacement_rounded": 40000, "total_displacement_rounded": 40000, "total_displacement": 40000}, {"iso3": "COD", "country_name": "Dem. Rep. Congo", "year": 2014, "new_displacement": 1003400, "new_displacement_rounded": 1003000, "total_displacement_rounded": 2757000, "total_displacement": 2756600}, {"iso3": "COG", "country_name": "Congo", "year": 2014, "new_displacement": 0, "new_displacement_rounded": null, "total_displacement_rounded": 7800, "total_displacement": 7800}, {"iso3": "COL", "country_name": "Colombia", "year": 2014, "new_displacement": 137214, "new_displacement_rounded": 137000, "total_displacement_rounded": 6044000, "total_displacement": 6044151}]}
