{"count": 830, "next": "https://helix-tools-api.idmcdb.org/external-api/gidd/conflicts/?client_id=HDX00AKEYJUl17&client_id=HDX00AKEYJUl17&format=json&limit=100&offset=700", "previous": "https://helix-tools-api.idmcdb.org/external-api/gidd/conflicts/?client_id=HDX00AKEYJUl17&client_id=HDX00AKEYJUl17&format=json&limit=100&offset=500", "results": [{"iso3": "IDN", "country_name": "Indonesia", "year": 2019, "new_displacement": 23396, "new_displacement_rounded": 23000, "total_displacement_rounded": 40000, "total_displacement": 40094}, {"iso3": "IRQ", "country_name": "Iraq", "year": 2019, "new_displacement": 103764, "new_displacement_rounded": 104000, "total_displacement_rounded": 1533000, "total_displacement": 1532518}, {"iso3": "ISR", "country_name": "Israel", "year": 2019, "new_displacement": 2293, "new_displacement_rounded": 2300, "total_displacement_rounded": null, "total_displacement": null}, {"iso3": "KEN", "country_name": "Kenya", "year": 2019, "new_displacement": 1838, "new_displacement_rounded": 1800, "total_displacement_rounded": 162000, "total_displacement": 161843}, {"iso3": "XKX", "country_name": "Kosovo", "year": 2019, "new_displacement": null, "new_displacement_rounded": null, "total_displacement_rounded": 16000, "total_displacement": 16151}, {"iso3": "KGZ", "country_name": "Kyrgyzstan", "year": 2019, "new_displacement": 770, "new_displacement_rounded": 770, "total_displacement_rounded": 770, "total_displacement": 770}, {"iso3": "LBN", "country_name": "Lebanon", "year": 2019, "new_displacement": null, "new_displacement_rounded": null, "total_displacement_rounded": 7000, "total_displacement": 6991}, {"iso3": "LBY", "country_name": "Libya", "year": 2019, "new_displacement": 215240, "new_displacement_rounded": 215000, "total_displacement_rounded": 411000, "total_displacement": 411178}, {"iso3": "MDG", "country_name": "Madagascar", "year": 2019, "new_displacement": null, "new_displacement_rounded": null, "total_displacement_rounded": 1500, "total_displacement": 1512}, {"iso3": "MLI", "country_name": "Mali", "year": 2019, "new_displacement": 284025, "new_displacement_rounded": 284000, "total_displacement_rounded": 208000, "total_displacement": 207751}, {"iso3": "MEX", "country_name": "Mexico", "year": 2019, "new_displacement": 8664, "new_displacement_rounded": 8700, "total_displacement_rounded": 347000, "total_displacement": 346945}, {"iso3": "MOZ", "country_name": "Mozambique", "year": 2019, "new_displacement": 5288, "new_displacement_rounded": 5300, "total_displacement_rounded": 95000, "total_displacement": 94966}, {"iso3": "MMR", "country_name": "Myanmar", "year": 2019, "new_displacement": 79652, "new_displacement_rounded": 80000, "total_displacement_rounded": 457000, "total_displacement": 457313}, {"iso3": "NER", "country_name": "Niger", "year": 2019, "new_displacement": 56048, "new_displacement_rounded": 56000, "total_displacement_rounded": 195000, "total_displacement": 194677}, {"iso3": "NGA", "country_name": "Nigeria", "year": 2019, "new_displacement": 247713, "new_displacement_rounded": 248000, "total_displacement_rounded": 2583000, "total_displacement": 2582615}, {"iso3": "MKD", "country_name": "North Macedonia", "year": 2019, "new_displacement": null, "new_displacement_rounded": null, "total_displacement_rounded": 140, "total_displacement": 140}, {"iso3": "PAK", "country_name": "Pakistan", "year": 2019, "new_displacement": 16051, "new_displacement_rounded": 16000, "total_displacement_rounded": 106000, "total_displacement": 105844}, {"iso3": "PSE", "country_name": "Palestine", "year": 2019, "new_displacement": 1516, "new_displacement_rounded": 1500, "total_displacement_rounded": 243000, "total_displacement": 243355}, {"iso3": "PNG", "country_name": "Papua New Guinea", "year": 2019, "new_displacement": 1279, "new_displacement_rounded": 1300, "total_displacement_rounded": 14000, "total_displacement": 14233}, {"iso3": "PER", "country_name": "Peru", "year": 2019, "new_displacement": 35, "new_displacement_rounded": 35, "total_displacement_rounded": 60000, "total_displacement": 59881}, {"iso3": "PHL", "country_name": "Philippines", "year": 2019, "new_displacement": 183273, "new_displacement_rounded": 183000, "total_displacement_rounded": 182000, "total_displacement": 181815}, {"iso3": "RUS", "country_name": "Russia", "year": 2019, "new_displacement": null, "new_displacement_rounded": null, "total_displacement_rounded": 1800, "total_displacement": 1824}, {"iso3": "SEN", "country_name": "Senegal", "year": 2019, "new_displacement": null, "new_displacement_rounded": null, "total_displacement_rounded": 8400, "total_displacement": 8406}, {"iso3": "SLE", "country_name": "Sierra Leone", "year": 2019, "new_displacement": 2500, "new_displacement_rounded": 2500, "total_displacement_rounded": 5500, "total_displacement": 5500}, {"iso3": "SOM", "country_name": "Somalia", "year": 2019, "new_displacement": 188229, "new_displacement_rounded": 188000, "total_displacement_rounded": 2648000, "total_displacement": 2648000}, {"iso3": "ZAF", "country_name": "South Africa", "year": 2019, "new_displacement": 2341, "new_displacement_rounded": 2300, "total_displacement_rounded": null, "total_displacement": null}, {"iso3": "SSD", "country_name": "South Sudan", "year": 2019, "new_displacement": 258598, "new_displacement_rounded": 259000, "total_displacement_rounded": 1352000, "total_displacement": 1351876}, {"iso3": "LKA", "country_name": "Sri Lanka", "year": 2019, "new_displacement": 1700, "new_displacement_rounded": 1700, "total_displacement_rounded": 27000, "total_displacement": 27327}, {"iso3": "SDN", "country_name": "Sudan", "year": 2019, "new_displacement": 83819, "new_displacement_rounded": 84000, "total_displacement_rounded": 2134000, "total_displacement": 2134323}, {"iso3": "SYR", "country_name": "Syria", "year": 2019, "new_displacement": 1847140, "new_displacement_rounded": 1847000, "total_displacement_rounded": 6495000, "total_displacement": 6495392}, {"iso3": "THA", "country_name": "Thailand", "year": 2019, "new_displacement": null, "new_displacement_rounded": null, "total_displacement_rounded": 41000, "total_displacement": 40584}, {"iso3": "TUR", "country_name": "T\u00fcrkiye", "year": 2019, "new_displacement": 2000, "new_displacement_rounded": 2000, "total_displacement_rounded": 1099000, "total_displacement": 1099493}, {"iso3": "UGA", "country_name": "Uganda", "year": 2019, "new_displacement": 2317, "new_displacement_rounded": 2300, "total_displacement_rounded": 32000, "total_displacement": 32140}, {"iso3": "UKR", "country_name": "Ukraine", "year": 2019, "new_displacement": 60, "new_displacement_rounded": 60, "total_displacement_rounded": 730000, "total_displacement": 730000}, {"iso3": "YEM", "country_name": "Yemen", "year": 2019, "new_displacement": 398412, "new_displacement_rounded": 398000, "total_displacement_rounded": 3635000, "total_displacement": 3634845}, {"iso3": "AB9", "country_name": "Abyei Area", "year": 2020, "new_displacement": 4742, "new_displacement_rounded": 4700, "total_displacement_rounded": 19000, "total_displacement": 19000}, {"iso3": "AFG", "country_name": "Afghanistan", "year": 2020, "new_displacement": 404139, "new_displacement_rounded": 404000, "total_displacement_rounded": 3547000, "total_displacement": 3546858}, {"iso3": "ARM", "country_name": "Armenia", "year": 2020, "new_displacement": 800, "new_displacement_rounded": 800, "total_displacement_rounded": 800, "total_displacement": 800}, {"iso3": "AZE", "country_name": "Azerbaijan", "year": 2020, "new_displacement": 83997, "new_displacement_rounded": 84000, "total_displacement_rounded": 735000, "total_displacement": 735455}, {"iso3": "BGD", "country_name": "Bangladesh", "year": 2020, "new_displacement": 231, "new_displacement_rounded": 230, "total_displacement_rounded": 427000, "total_displacement": 426763}, {"iso3": "BEN", "country_name": "Benin", "year": 2020, "new_displacement": null, "new_displacement_rounded": null, "total_displacement_rounded": 3500, "total_displacement": 3494}, {"iso3": "BIH", "country_name": "Bosnia and Herzegovina", "year": 2020, "new_displacement": null, "new_displacement_rounded": null, "total_displacement_rounded": 99000, "total_displacement": 98574}, {"iso3": "BFA", "country_name": "Burkina Faso", "year": 2020, "new_displacement": 514960, "new_displacement_rounded": 515000, "total_displacement_rounded": 1075000, "total_displacement": 1074993}, {"iso3": "BDI", "country_name": "Burundi", "year": 2020, "new_displacement": 310, "new_displacement_rounded": 310, "total_displacement_rounded": 22000, "total_displacement": 21765}, {"iso3": "CMR", "country_name": "Cameroon", "year": 2020, "new_displacement": 122643, "new_displacement_rounded": 123000, "total_displacement_rounded": 1003000, "total_displacement": 1002910}, {"iso3": "CAF", "country_name": "Central African Republic", "year": 2020, "new_displacement": 317619, "new_displacement_rounded": 318000, "total_displacement_rounded": 682000, "total_displacement": 681930}, {"iso3": "TCD", "country_name": "Chad", "year": 2020, "new_displacement": 79124, "new_displacement_rounded": 79000, "total_displacement_rounded": 342000, "total_displacement": 342069}, {"iso3": "COL", "country_name": "Colombia", "year": 2020, "new_displacement": 105805, "new_displacement_rounded": 106000, "total_displacement_rounded": 4922000, "total_displacement": 4922122}, {"iso3": "COG", "country_name": "Congo", "year": 2020, "new_displacement": null, "new_displacement_rounded": null, "total_displacement_rounded": 134000, "total_displacement": 134430}, {"iso3": "CIV", "country_name": "C\u00f4te d'Ivoire", "year": 2020, "new_displacement": 14670, "new_displacement_rounded": 15000, "total_displacement_rounded": 308000, "total_displacement": 307535}, {"iso3": "CYP", "country_name": "Cyprus", "year": 2020, "new_displacement": null, "new_displacement_rounded": null, "total_displacement_rounded": 228000, "total_displacement": 228125}, {"iso3": "COD", "country_name": "Dem. Rep. Congo", "year": 2020, "new_displacement": 2208890, "new_displacement_rounded": 2209000, "total_displacement_rounded": 5268000, "total_displacement": 5267918}, {"iso3": "EGY", "country_name": "Egypt", "year": 2020, "new_displacement": 1000, "new_displacement_rounded": 1000, "total_displacement_rounded": 3200, "total_displacement": 3181}, {"iso3": "SLV", "country_name": "El Salvador", "year": 2020, "new_displacement": 114026, "new_displacement_rounded": 114000, "total_displacement_rounded": null, "total_displacement": null}, {"iso3": "ETH", "country_name": "Ethiopia", "year": 2020, "new_displacement": 1691655, "new_displacement_rounded": 1692000, "total_displacement_rounded": 2060000, "total_displacement": 2059883}, {"iso3": "GEO", "country_name": "Georgia", "year": 2020, "new_displacement": null, "new_displacement_rounded": null, "total_displacement_rounded": 304000, "total_displacement": 303538}, {"iso3": "GTM", "country_name": "Guatemala", "year": 2020, "new_displacement": null, "new_displacement_rounded": null, "total_displacement_rounded": 242000, "total_displacement": 242386}, {"iso3": "HTI", "country_name": "Haiti", "year": 2020, "new_displacement": 7946, "new_displacement_rounded": 7900, "total_displacement_rounded": 7900, "total_displacement": 7946}, {"iso3": "HND", "country_name": "Honduras", "year": 2020, "new_displacement": null, "new_displacement_rounded": null, "total_displacement_rounded": 247000, "total_displacement": 247090}, {"iso3": "IND", "country_name": "India", "year": 2020, "new_displacement": 3922, "new_displacement_rounded": 3900, "total_displacement_rounded": 473000, "total_displacement": 473079}, {"iso3": "IDN", "country_name": "Indonesia", "year": 2020, "new_displacement": 4599, "new_displacement_rounded": 4600, "total_displacement_rounded": 42000, "total_displacement": 42041}, {"iso3": "IRQ", "country_name": "Iraq", "year": 2020, "new_displacement": 67162, "new_displacement_rounded": 67000, "total_displacement_rounded": 1224000, "total_displacement": 1224108}, {"iso3": "ISR", "country_name": "Israel", "year": 2020, "new_displacement": 3028, "new_displacement_rounded": 3000, "total_displacement_rounded": null, "total_displacement": null}, {"iso3": "KEN", "country_name": "Kenya", "year": 2020, "new_displacement": 3910, "new_displacement_rounded": 3900, "total_displacement_rounded": 190000, "total_displacement": 190000}, {"iso3": "XKX", "country_name": "Kosovo", "year": 2020, "new_displacement": null, "new_displacement_rounded": null, "total_displacement_rounded": 16000, "total_displacement": 16027}, {"iso3": "KGZ", "country_name": "Kyrgyzstan", "year": 2020, "new_displacement": 254, "new_displacement_rounded": 250, "total_displacement_rounded": 770, "total_displacement": 770}, {"iso3": "LBN", "country_name": "Lebanon", "year": 2020, "new_displacement": null, "new_displacement_rounded": null, "total_displacement_rounded": 7000, "total_displacement": 6991}, {"iso3": "LBY", "country_name": "Libya", "year": 2020, "new_displacement": 39225, "new_displacement_rounded": 39000, "total_displacement_rounded": 278000, "total_displacement": 278177}, {"iso3": "MDG", "country_name": "Madagascar", "year": 2020, "new_displacement": null, "new_displacement_rounded": null, "total_displacement_rounded": 1500, "total_displacement": 1512}, {"iso3": "MLI", "country_name": "Mali", "year": 2020, "new_displacement": 276690, "new_displacement_rounded": 277000, "total_displacement_rounded": 326000, "total_displacement": 326298}, {"iso3": "MEX", "country_name": "Mexico", "year": 2020, "new_displacement": 9741, "new_displacement_rounded": 9700, "total_displacement_rounded": 357000, "total_displacement": 356792}, {"iso3": "MOZ", "country_name": "Mozambique", "year": 2020, "new_displacement": 592037, "new_displacement_rounded": 592000, "total_displacement_rounded": 676000, "total_displacement": 676294}, {"iso3": "MMR", "country_name": "Myanmar", "year": 2020, "new_displacement": 70194, "new_displacement_rounded": 70000, "total_displacement_rounded": 505000, "total_displacement": 505378}, {"iso3": "NCL", "country_name": "New Caledonia", "year": 2020, "new_displacement": 140, "new_displacement_rounded": 140, "total_displacement_rounded": 140, "total_displacement": 140}, {"iso3": "NIC", "country_name": "Nicaragua", "year": 2020, "new_displacement": 77, "new_displacement_rounded": 77, "total_displacement_rounded": 77, "total_displacement": 77}, {"iso3": "NER", "country_name": "Niger", "year": 2020, "new_displacement": 135717, "new_displacement_rounded": 136000, "total_displacement_rounded": 257000, "total_displacement": 257095}, {"iso3": "NGA", "country_name": "Nigeria", "year": 2020, "new_displacement": 168556, "new_displacement_rounded": 169000, "total_displacement_rounded": 2730000, "total_displacement": 2730425}, {"iso3": "MKD", "country_name": "North Macedonia", "year": 2020, "new_displacement": null, "new_displacement_rounded": null, "total_displacement_rounded": 140, "total_displacement": 140}, {"iso3": "PAK", "country_name": "Pakistan", "year": 2020, "new_displacement": 388, "new_displacement_rounded": 390, "total_displacement_rounded": 104000, "total_displacement": 103602}, {"iso3": "PSE", "country_name": "Palestine", "year": 2020, "new_displacement": 1001, "new_displacement_rounded": 1000, "total_displacement_rounded": 131000, "total_displacement": 131082}, {"iso3": "PNG", "country_name": "Papua New Guinea", "year": 2020, "new_displacement": null, "new_displacement_rounded": null, "total_displacement_rounded": 14000, "total_displacement": 14216}, {"iso3": "PER", "country_name": "Peru", "year": 2020, "new_displacement": null, "new_displacement_rounded": null, "total_displacement_rounded": 60000, "total_displacement": 59846}, {"iso3": "PHL", "country_name": "Philippines", "year": 2020, "new_displacement": 110622, "new_displacement_rounded": 111000, "total_displacement_rounded": 153000, "total_displacement": 153057}, {"iso3": "RUS", "country_name": "Russia", "year": 2020, "new_displacement": null, "new_displacement_rounded": null, "total_displacement_rounded": 1100, "total_displacement": 1085}, {"iso3": "SEN", "country_name": "Senegal", "year": 2020, "new_displacement": null, "new_displacement_rounded": null, "total_displacement_rounded": 8400, "total_displacement": 8406}, {"iso3": "SLE", "country_name": "Sierra Leone", "year": 2020, "new_displacement": null, "new_displacement_rounded": null, "total_displacement_rounded": 5500, "total_displacement": 5500}, {"iso3": "SOM", "country_name": "Somalia", "year": 2020, "new_displacement": 292518, "new_displacement_rounded": 293000, "total_displacement_rounded": 2968000, "total_displacement": 2967500}, {"iso3": "ZAF", "country_name": "South Africa", "year": 2020, "new_displacement": null, "new_displacement_rounded": null, "total_displacement_rounded": null, "total_displacement": 0}, {"iso3": "SSD", "country_name": "South Sudan", "year": 2020, "new_displacement": 271149, "new_displacement_rounded": 271000, "total_displacement_rounded": 1436000, "total_displacement": 1435781}, {"iso3": "LKA", "country_name": "Sri Lanka", "year": 2020, "new_displacement": null, "new_displacement_rounded": null, "total_displacement_rounded": 27000, "total_displacement": 27327}, {"iso3": "SDN", "country_name": "Sudan", "year": 2020, "new_displacement": 79399, "new_displacement_rounded": 79000, "total_displacement_rounded": 2276000, "total_displacement": 2276314}, {"iso3": "SYR", "country_name": "Syria", "year": 2020, "new_displacement": 1821973, "new_displacement_rounded": 1822000, "total_displacement_rounded": 6568000, "total_displacement": 6567759}, {"iso3": "THA", "country_name": "Thailand", "year": 2020, "new_displacement": null, "new_displacement_rounded": null, "total_displacement_rounded": 41000, "total_displacement": 40584}, {"iso3": "TUR", "country_name": "T\u00fcrkiye", "year": 2020, "new_displacement": null, "new_displacement_rounded": null, "total_displacement_rounded": 1099000, "total_displacement": 1099493}, {"iso3": "UGA", "country_name": "Uganda", "year": 2020, "new_displacement": 79, "new_displacement_rounded": 79, "total_displacement_rounded": 1000, "total_displacement": 1032}, {"iso3": "UKR", "country_name": "Ukraine", "year": 2020, "new_displacement": 74, "new_displacement_rounded": 74, "total_displacement_rounded": 734000, "total_displacement": 734344}, {"iso3": "YEM", "country_name": "Yemen", "year": 2020, "new_displacement": 142884, "new_displacement_rounded": 143000, "total_displacement_rounded": 3635000, "total_displacement": 3634845}, {"iso3": "AB9", "country_name": "Abyei Area", "year": 2021, "new_displacement": 600, "new_displacement_rounded": 600, "total_displacement_rounded": 15000, "total_displacement": 15000}, {"iso3": "AFG", "country_name": "Afghanistan", "year": 2021, "new_displacement": 723082, "new_displacement_rounded": 723000, "total_displacement_rounded": 4314000, "total_displacement": 4314287}, {"iso3": "ARM", "country_name": "Armenia", "year": 2021, "new_displacement": null, "new_displacement_rounded": null, "total_displacement_rounded": 800, "total_displacement": 800}]}
