{"count": 830, "next": "https://helix-tools-api.idmcdb.org/external-api/gidd/conflicts/?client_id=HDX00AKEYJUl17&client_id=HDX00AKEYJUl17&format=json&limit=100&offset=500", "previous": "https://helix-tools-api.idmcdb.org/external-api/gidd/conflicts/?client_id=HDX00AKEYJUl17&client_id=HDX00AKEYJUl17&format=json&limit=100&offset=300", "results": [{"iso3": "UKR", "country_name": "Ukraine", "year": 2015, "new_displacement": 942418, "new_displacement_rounded": 942000, "total_displacement_rounded": 1679000, "total_displacement": 1678587}, {"iso3": "XKX", "country_name": "Kosovo", "year": 2015, "new_displacement": 0, "new_displacement_rounded": null, "total_displacement_rounded": 17000, "total_displacement": 16862}, {"iso3": "YEM", "country_name": "Yemen", "year": 2015, "new_displacement": 2174968, "new_displacement_rounded": 2175000, "total_displacement_rounded": 2509000, "total_displacement": 2509068}, {"iso3": "AB9", "country_name": "Abyei Area", "year": 2016, "new_displacement": null, "new_displacement_rounded": null, "total_displacement_rounded": 20000, "total_displacement": 20000}, {"iso3": "AFG", "country_name": "Afghanistan", "year": 2016, "new_displacement": 652594, "new_displacement_rounded": 653000, "total_displacement_rounded": 1200000, "total_displacement": 1200000}, {"iso3": "DZA", "country_name": "Algeria", "year": 2016, "new_displacement": 2800, "new_displacement_rounded": 2800, "total_displacement_rounded": 2500, "total_displacement": 2540}, {"iso3": "ARM", "country_name": "Armenia", "year": 2016, "new_displacement": null, "new_displacement_rounded": null, "total_displacement_rounded": 8400, "total_displacement": 8400}, {"iso3": "AZE", "country_name": "Azerbaijan", "year": 2016, "new_displacement": null, "new_displacement_rounded": null, "total_displacement_rounded": 582000, "total_displacement": 582307}, {"iso3": "BGD", "country_name": "Bangladesh", "year": 2016, "new_displacement": null, "new_displacement_rounded": null, "total_displacement_rounded": 426000, "total_displacement": 426070}, {"iso3": "BIH", "country_name": "Bosnia and Herzegovina", "year": 2016, "new_displacement": null, "new_displacement_rounded": null, "total_displacement_rounded": 98000, "total_displacement": 98300}, {"iso3": "BFA", "country_name": "Burkina Faso", "year": 2016, "new_displacement": 700, "new_displacement_rounded": 700, "total_displacement_rounded": 700, "total_displacement": 700}, {"iso3": "BDI", "country_name": "Burundi", "year": 2016, "new_displacement": 16213, "new_displacement_rounded": 16000, "total_displacement_rounded": 59000, "total_displacement": 59313}, {"iso3": "CMR", "country_name": "Cameroon", "year": 2016, "new_displacement": 82981, "new_displacement_rounded": 83000, "total_displacement_rounded": 177000, "total_displacement": 176555}, {"iso3": "CAF", "country_name": "Central African Republic", "year": 2016, "new_displacement": 46205, "new_displacement_rounded": 46000, "total_displacement_rounded": 412000, "total_displacement": 411785}, {"iso3": "TCD", "country_name": "Chad", "year": 2016, "new_displacement": 36278, "new_displacement_rounded": 36000, "total_displacement_rounded": 108000, "total_displacement": 108476}, {"iso3": "COL", "country_name": "Colombia", "year": 2016, "new_displacement": 170946, "new_displacement_rounded": 171000, "total_displacement_rounded": 7246000, "total_displacement": 7245689}, {"iso3": "COG", "country_name": "Congo", "year": 2016, "new_displacement": 25303, "new_displacement_rounded": 25000, "total_displacement_rounded": 25000, "total_displacement": 25303}, {"iso3": "CIV", "country_name": "C\u00f4te d'Ivoire", "year": 2016, "new_displacement": null, "new_displacement_rounded": null, "total_displacement_rounded": 301000, "total_displacement": 300889}, {"iso3": "CYP", "country_name": "Cyprus", "year": 2016, "new_displacement": null, "new_displacement_rounded": null, "total_displacement_rounded": 272000, "total_displacement": 272000}, {"iso3": "COD", "country_name": "Dem. Rep. Congo", "year": 2016, "new_displacement": 922100, "new_displacement_rounded": 922000, "total_displacement_rounded": 2230000, "total_displacement": 2230157}, {"iso3": "EGY", "country_name": "Egypt", "year": 2016, "new_displacement": null, "new_displacement_rounded": null, "total_displacement_rounded": 9100, "total_displacement": 9069}, {"iso3": "SLV", "country_name": "El Salvador", "year": 2016, "new_displacement": 219724, "new_displacement_rounded": 220000, "total_displacement_rounded": null, "total_displacement": null}, {"iso3": "ETH", "country_name": "Ethiopia", "year": 2016, "new_displacement": 296429, "new_displacement_rounded": 296000, "total_displacement_rounded": 258000, "total_displacement": 257563}, {"iso3": "GEO", "country_name": "Georgia", "year": 2016, "new_displacement": null, "new_displacement_rounded": null, "total_displacement_rounded": 244000, "total_displacement": 243765}, {"iso3": "GTM", "country_name": "Guatemala", "year": 2016, "new_displacement": 6174, "new_displacement_rounded": 6200, "total_displacement_rounded": 257000, "total_displacement": 256560}, {"iso3": "HND", "country_name": "Honduras", "year": 2016, "new_displacement": 16000, "new_displacement_rounded": 16000, "total_displacement_rounded": 190000, "total_displacement": 190000}, {"iso3": "IND", "country_name": "India", "year": 2016, "new_displacement": 448400, "new_displacement_rounded": 448000, "total_displacement_rounded": 796000, "total_displacement": 796275}, {"iso3": "IDN", "country_name": "Indonesia", "year": 2016, "new_displacement": 353, "new_displacement_rounded": 350, "total_displacement_rounded": 7100, "total_displacement": 7084}, {"iso3": "IRQ", "country_name": "Iraq", "year": 2016, "new_displacement": 658614, "new_displacement_rounded": 659000, "total_displacement_rounded": 3035000, "total_displacement": 3034614}, {"iso3": "ISR", "country_name": "Israel", "year": 2016, "new_displacement": 1750, "new_displacement_rounded": 1800, "total_displacement_rounded": null, "total_displacement": null}, {"iso3": "KEN", "country_name": "Kenya", "year": 2016, "new_displacement": null, "new_displacement_rounded": null, "total_displacement_rounded": 138000, "total_displacement": 138428}, {"iso3": "XKX", "country_name": "Kosovo", "year": 2016, "new_displacement": null, "new_displacement_rounded": null, "total_displacement_rounded": 17000, "total_displacement": 16557}, {"iso3": "LBN", "country_name": "Lebanon", "year": 2016, "new_displacement": 108, "new_displacement_rounded": 110, "total_displacement_rounded": 12000, "total_displacement": 12020}, {"iso3": "LBY", "country_name": "Libya", "year": 2016, "new_displacement": 156307, "new_displacement_rounded": 156000, "total_displacement_rounded": 304000, "total_displacement": 303608}, {"iso3": "MLI", "country_name": "Mali", "year": 2016, "new_displacement": 6293, "new_displacement_rounded": 6300, "total_displacement_rounded": 37000, "total_displacement": 36690}, {"iso3": "MEX", "country_name": "Mexico", "year": 2016, "new_displacement": 23169, "new_displacement_rounded": 23000, "total_displacement_rounded": 311000, "total_displacement": 310527}, {"iso3": "MOZ", "country_name": "Mozambique", "year": 2016, "new_displacement": 15128, "new_displacement_rounded": 15000, "total_displacement_rounded": 15000, "total_displacement": 15128}, {"iso3": "MMR", "country_name": "Myanmar", "year": 2016, "new_displacement": 32000, "new_displacement_rounded": 32000, "total_displacement_rounded": 644000, "total_displacement": 644000}, {"iso3": "NPL", "country_name": "Nepal", "year": 2016, "new_displacement": null, "new_displacement_rounded": null, "total_displacement_rounded": 50000, "total_displacement": 50000}, {"iso3": "NER", "country_name": "Niger", "year": 2016, "new_displacement": 166012, "new_displacement_rounded": 166000, "total_displacement_rounded": 136000, "total_displacement": 136069}, {"iso3": "NGA", "country_name": "Nigeria", "year": 2016, "new_displacement": 501160, "new_displacement_rounded": 501000, "total_displacement_rounded": 1955000, "total_displacement": 1954565}, {"iso3": "MKD", "country_name": "North Macedonia", "year": 2016, "new_displacement": null, "new_displacement_rounded": null, "total_displacement_rounded": 150, "total_displacement": 150}, {"iso3": "PAK", "country_name": "Pakistan", "year": 2016, "new_displacement": 2356, "new_displacement_rounded": 2400, "total_displacement_rounded": 464000, "total_displacement": 463921}, {"iso3": "PSE", "country_name": "Palestine", "year": 2016, "new_displacement": 1601, "new_displacement_rounded": 1600, "total_displacement_rounded": 193000, "total_displacement": 193277}, {"iso3": "PNG", "country_name": "Papua New Guinea", "year": 2016, "new_displacement": 290, "new_displacement_rounded": 290, "total_displacement_rounded": 8400, "total_displacement": 8421}, {"iso3": "PER", "country_name": "Peru", "year": 2016, "new_displacement": null, "new_displacement_rounded": null, "total_displacement_rounded": 62000, "total_displacement": 62237}, {"iso3": "PHL", "country_name": "Philippines", "year": 2016, "new_displacement": 279870, "new_displacement_rounded": 280000, "total_displacement_rounded": 87000, "total_displacement": 87417}, {"iso3": "RUS", "country_name": "Russia", "year": 2016, "new_displacement": null, "new_displacement_rounded": null, "total_displacement_rounded": 19000, "total_displacement": 19327}, {"iso3": "SEN", "country_name": "Senegal", "year": 2016, "new_displacement": null, "new_displacement_rounded": null, "total_displacement_rounded": 24000, "total_displacement": 24000}, {"iso3": "SOM", "country_name": "Somalia", "year": 2016, "new_displacement": 175000, "new_displacement_rounded": 175000, "total_displacement_rounded": 1107000, "total_displacement": 1106751}, {"iso3": "SSD", "country_name": "South Sudan", "year": 2016, "new_displacement": 281229, "new_displacement_rounded": 281000, "total_displacement_rounded": 1847000, "total_displacement": 1847068}, {"iso3": "LKA", "country_name": "Sri Lanka", "year": 2016, "new_displacement": null, "new_displacement_rounded": null, "total_displacement_rounded": 44000, "total_displacement": 43607}, {"iso3": "SDN", "country_name": "Sudan", "year": 2016, "new_displacement": 97481, "new_displacement_rounded": 97000, "total_displacement_rounded": 3300000, "total_displacement": 3300000}, {"iso3": "SYR", "country_name": "Syria", "year": 2016, "new_displacement": 2148498, "new_displacement_rounded": 2148000, "total_displacement_rounded": 6326000, "total_displacement": 6325978}, {"iso3": "THA", "country_name": "Thailand", "year": 2016, "new_displacement": null, "new_displacement_rounded": null, "total_displacement_rounded": 35000, "total_displacement": 35000}, {"iso3": "TGO", "country_name": "Togo", "year": 2016, "new_displacement": null, "new_displacement_rounded": null, "total_displacement_rounded": 1500, "total_displacement": 1500}, {"iso3": "TUR", "country_name": "T\u00fcrkiye", "year": 2016, "new_displacement": 204000, "new_displacement_rounded": 204000, "total_displacement_rounded": 1108000, "total_displacement": 1107990}, {"iso3": "UGA", "country_name": "Uganda", "year": 2016, "new_displacement": 23000, "new_displacement_rounded": 23000, "total_displacement_rounded": 53000, "total_displacement": 53000}, {"iso3": "UKR", "country_name": "Ukraine", "year": 2016, "new_displacement": 108921, "new_displacement_rounded": 109000, "total_displacement_rounded": 1653000, "total_displacement": 1652512}, {"iso3": "YEM", "country_name": "Yemen", "year": 2016, "new_displacement": 477747, "new_displacement_rounded": 478000, "total_displacement_rounded": 1974000, "total_displacement": 1973994}, {"iso3": "AB9", "country_name": "Abyei Area", "year": 2017, "new_displacement": null, "new_displacement_rounded": null, "total_displacement_rounded": 31000, "total_displacement": 30874}, {"iso3": "AFG", "country_name": "Afghanistan", "year": 2017, "new_displacement": 473892, "new_displacement_rounded": 474000, "total_displacement_rounded": 1286000, "total_displacement": 1286483}, {"iso3": "AZE", "country_name": "Azerbaijan", "year": 2017, "new_displacement": 0, "new_displacement_rounded": null, "total_displacement_rounded": 643000, "total_displacement": 642982}, {"iso3": "BGD", "country_name": "Bangladesh", "year": 2017, "new_displacement": 6000, "new_displacement_rounded": 6000, "total_displacement_rounded": 432000, "total_displacement": 432070}, {"iso3": "BIH", "country_name": "Bosnia and Herzegovina", "year": 2017, "new_displacement": null, "new_displacement_rounded": null, "total_displacement_rounded": 99000, "total_displacement": 98574}, {"iso3": "BFA", "country_name": "Burkina Faso", "year": 2017, "new_displacement": 4911, "new_displacement_rounded": 4900, "total_displacement_rounded": 4900, "total_displacement": 4911}, {"iso3": "BDI", "country_name": "Burundi", "year": 2017, "new_displacement": 13630, "new_displacement_rounded": 14000, "total_displacement_rounded": 57000, "total_displacement": 57258}, {"iso3": "CMR", "country_name": "Cameroon", "year": 2017, "new_displacement": 119377, "new_displacement_rounded": 119000, "total_displacement_rounded": 239000, "total_displacement": 239337}, {"iso3": "CAF", "country_name": "Central African Republic", "year": 2017, "new_displacement": 539438, "new_displacement_rounded": 539000, "total_displacement_rounded": 689000, "total_displacement": 688700}, {"iso3": "TCD", "country_name": "Chad", "year": 2017, "new_displacement": 5776, "new_displacement_rounded": 5800, "total_displacement_rounded": 158000, "total_displacement": 157734}, {"iso3": "COL", "country_name": "Colombia", "year": 2017, "new_displacement": 139359, "new_displacement_rounded": 139000, "total_displacement_rounded": 6509000, "total_displacement": 6509223}, {"iso3": "COG", "country_name": "Congo", "year": 2017, "new_displacement": 85828, "new_displacement_rounded": 86000, "total_displacement_rounded": 108000, "total_displacement": 107828}, {"iso3": "CIV", "country_name": "C\u00f4te d'Ivoire", "year": 2017, "new_displacement": 5483, "new_displacement_rounded": 5500, "total_displacement_rounded": 302000, "total_displacement": 301705}, {"iso3": "CYP", "country_name": "Cyprus", "year": 2017, "new_displacement": null, "new_displacement_rounded": null, "total_displacement_rounded": 217000, "total_displacement": 216867}, {"iso3": "COD", "country_name": "Dem. Rep. Congo", "year": 2017, "new_displacement": 2165767, "new_displacement_rounded": 2166000, "total_displacement_rounded": 4480000, "total_displacement": 4479750}, {"iso3": "EGY", "country_name": "Egypt", "year": 2017, "new_displacement": 1845, "new_displacement_rounded": 1800, "total_displacement_rounded": 36000, "total_displacement": 35539}, {"iso3": "SLV", "country_name": "El Salvador", "year": 2017, "new_displacement": 295897, "new_displacement_rounded": 296000, "total_displacement_rounded": null, "total_displacement": null}, {"iso3": "ETH", "country_name": "Ethiopia", "year": 2017, "new_displacement": 724813, "new_displacement_rounded": 725000, "total_displacement_rounded": 1078000, "total_displacement": 1078429}, {"iso3": "GMB", "country_name": "Gambia", "year": 2017, "new_displacement": 162342, "new_displacement_rounded": 162000, "total_displacement_rounded": null, "total_displacement": 0}, {"iso3": "GEO", "country_name": "Georgia", "year": 2017, "new_displacement": null, "new_displacement_rounded": null, "total_displacement_rounded": 248000, "total_displacement": 248103}, {"iso3": "GTM", "country_name": "Guatemala", "year": 2017, "new_displacement": 1197, "new_displacement_rounded": 1200, "total_displacement_rounded": 242000, "total_displacement": 242386}, {"iso3": "HND", "country_name": "Honduras", "year": 2017, "new_displacement": null, "new_displacement_rounded": null, "total_displacement_rounded": 190000, "total_displacement": 190000}, {"iso3": "IND", "country_name": "India", "year": 2017, "new_displacement": 78489, "new_displacement_rounded": 78000, "total_displacement_rounded": 806000, "total_displacement": 805744}, {"iso3": "IDN", "country_name": "Indonesia", "year": 2017, "new_displacement": 2750, "new_displacement_rounded": 2800, "total_displacement_rounded": 13000, "total_displacement": 12905}, {"iso3": "IRQ", "country_name": "Iraq", "year": 2017, "new_displacement": 1379499, "new_displacement_rounded": 1379000, "total_displacement_rounded": 2616000, "total_displacement": 2615988}, {"iso3": "ISR", "country_name": "Israel", "year": 2017, "new_displacement": 2863, "new_displacement_rounded": 2900, "total_displacement_rounded": null, "total_displacement": null}, {"iso3": "KEN", "country_name": "Kenya", "year": 2017, "new_displacement": 27467, "new_displacement_rounded": 27000, "total_displacement_rounded": 159000, "total_displacement": 158637}, {"iso3": "XKX", "country_name": "Kosovo", "year": 2017, "new_displacement": null, "new_displacement_rounded": null, "total_displacement_rounded": 16000, "total_displacement": 16413}, {"iso3": "LBN", "country_name": "Lebanon", "year": 2017, "new_displacement": 200, "new_displacement_rounded": 200, "total_displacement_rounded": 11000, "total_displacement": 10815}, {"iso3": "LBY", "country_name": "Libya", "year": 2017, "new_displacement": 29318, "new_displacement_rounded": 29000, "total_displacement_rounded": 197000, "total_displacement": 197398}, {"iso3": "MLI", "country_name": "Mali", "year": 2017, "new_displacement": 35131, "new_displacement_rounded": 35000, "total_displacement_rounded": 38000, "total_displacement": 38172}, {"iso3": "MEX", "country_name": "Mexico", "year": 2017, "new_displacement": 20160, "new_displacement_rounded": 20000, "total_displacement_rounded": 330000, "total_displacement": 329917}, {"iso3": "MOZ", "country_name": "Mozambique", "year": 2017, "new_displacement": 126, "new_displacement_rounded": 130, "total_displacement_rounded": 10000, "total_displacement": 10213}, {"iso3": "MMR", "country_name": "Myanmar", "year": 2017, "new_displacement": 56967, "new_displacement_rounded": 57000, "total_displacement_rounded": 635000, "total_displacement": 635155}, {"iso3": "NPL", "country_name": "Nepal", "year": 2017, "new_displacement": 2, "new_displacement_rounded": 2, "total_displacement_rounded": 2, "total_displacement": 2}, {"iso3": "NER", "country_name": "Niger", "year": 2017, "new_displacement": 39766, "new_displacement_rounded": 40000, "total_displacement_rounded": 144000, "total_displacement": 143835}, {"iso3": "NGA", "country_name": "Nigeria", "year": 2017, "new_displacement": 279427, "new_displacement_rounded": 279000, "total_displacement_rounded": 1702000, "total_displacement": 1702095}, {"iso3": "MKD", "country_name": "North Macedonia", "year": 2017, "new_displacement": null, "new_displacement_rounded": null, "total_displacement_rounded": 140, "total_displacement": 140}, {"iso3": "PAK", "country_name": "Pakistan", "year": 2017, "new_displacement": 75137, "new_displacement_rounded": 75000, "total_displacement_rounded": 249000, "total_displacement": 249491}, {"iso3": "PSE", "country_name": "Palestine", "year": 2017, "new_displacement": 700, "new_displacement_rounded": 700, "total_displacement_rounded": 231000, "total_displacement": 231473}]}
