{"count": 830, "next": "https://helix-tools-api.idmcdb.org/external-api/gidd/conflicts/?client_id=HDX00AKEYJUl17&client_id=HDX00AKEYJUl17&format=json&limit=100&offset=200", "previous": "https://helix-tools-api.idmcdb.org/external-api/gidd/conflicts/?client_id=HDX00AKEYJUl17&client_id=HDX00AKEYJUl17&format=json&limit=100", "results": [{"iso3": "TCD", "country_name": "Chad", "year": 2010, "new_displacement": 0, "new_displacement_rounded": null, "total_displacement_rounded": 171000, "total_displacement": 171000}, {"iso3": "TGO", "country_name": "Togo", "year": 2010, "new_displacement": 0, "new_displacement_rounded": null, "total_displacement_rounded": 10000, "total_displacement": 10000}, {"iso3": "TKM", "country_name": "Turkmenistan", "year": 2010, "new_displacement": 0, "new_displacement_rounded": null, "total_displacement_rounded": 4000, "total_displacement": 4000}, {"iso3": "TLS", "country_name": "Timor-Leste", "year": 2010, "new_displacement": 0, "new_displacement_rounded": null, "total_displacement_rounded": 400, "total_displacement": 400}, {"iso3": "TUR", "country_name": "T\u00fcrkiye", "year": 2010, "new_displacement": 0, "new_displacement_rounded": null, "total_displacement_rounded": 1000000, "total_displacement": 1000000}, {"iso3": "UGA", "country_name": "Uganda", "year": 2010, "new_displacement": 0, "new_displacement_rounded": null, "total_displacement_rounded": 166000, "total_displacement": 166000}, {"iso3": "UZB", "country_name": "Uzbekistan", "year": 2010, "new_displacement": 0, "new_displacement_rounded": null, "total_displacement_rounded": 3400, "total_displacement": 3400}, {"iso3": "XKX", "country_name": "Kosovo", "year": 2010, "new_displacement": 0, "new_displacement_rounded": null, "total_displacement_rounded": 18000, "total_displacement": 18300}, {"iso3": "YEM", "country_name": "Yemen", "year": 2010, "new_displacement": 176000, "new_displacement_rounded": 176000, "total_displacement_rounded": 226000, "total_displacement": 226000}, {"iso3": "ZWE", "country_name": "Zimbabwe", "year": 2010, "new_displacement": 0, "new_displacement_rounded": null, "total_displacement_rounded": null, "total_displacement": null}, {"iso3": "AFG", "country_name": "Afghanistan", "year": 2011, "new_displacement": 186000, "new_displacement_rounded": 186000, "total_displacement_rounded": 450000, "total_displacement": 450000}, {"iso3": "AGO", "country_name": "Angola", "year": 2011, "new_displacement": 0, "new_displacement_rounded": null, "total_displacement_rounded": null, "total_displacement": null}, {"iso3": "ARM", "country_name": "Armenia", "year": 2011, "new_displacement": 0, "new_displacement_rounded": null, "total_displacement_rounded": 8400, "total_displacement": 8400}, {"iso3": "AZE", "country_name": "Azerbaijan", "year": 2011, "new_displacement": 0, "new_displacement_rounded": null, "total_displacement_rounded": 599000, "total_displacement": 599192}, {"iso3": "BDI", "country_name": "Burundi", "year": 2011, "new_displacement": 0, "new_displacement_rounded": null, "total_displacement_rounded": 79000, "total_displacement": 78800}, {"iso3": "BGD", "country_name": "Bangladesh", "year": 2011, "new_displacement": 600, "new_displacement_rounded": 600, "total_displacement_rounded": 426000, "total_displacement": 426490}, {"iso3": "BIH", "country_name": "Bosnia and Herzegovina", "year": 2011, "new_displacement": 0, "new_displacement_rounded": null, "total_displacement_rounded": 113000, "total_displacement": 113000}, {"iso3": "CAF", "country_name": "Central African Republic", "year": 2011, "new_displacement": 22180, "new_displacement_rounded": 22000, "total_displacement_rounded": 105000, "total_displacement": 105206}, {"iso3": "CIV", "country_name": "C\u00f4te d'Ivoire", "year": 2011, "new_displacement": 1000000, "new_displacement_rounded": 1000000, "total_displacement_rounded": 247000, "total_displacement": 247000}, {"iso3": "COD", "country_name": "Dem. Rep. Congo", "year": 2011, "new_displacement": 168000, "new_displacement_rounded": 168000, "total_displacement_rounded": 1710000, "total_displacement": 1710000}, {"iso3": "COG", "country_name": "Congo", "year": 2011, "new_displacement": 0, "new_displacement_rounded": null, "total_displacement_rounded": 7800, "total_displacement": 7800}, {"iso3": "COL", "country_name": "Colombia", "year": 2011, "new_displacement": 102956, "new_displacement_rounded": 103000, "total_displacement_rounded": 5281000, "total_displacement": 5281360}, {"iso3": "CYP", "country_name": "Cyprus", "year": 2011, "new_displacement": 0, "new_displacement_rounded": null, "total_displacement_rounded": 208000, "total_displacement": 208000}, {"iso3": "DZA", "country_name": "Algeria", "year": 2011, "new_displacement": 0, "new_displacement_rounded": null, "total_displacement_rounded": null, "total_displacement": null}, {"iso3": "ERI", "country_name": "Eritrea", "year": 2011, "new_displacement": 0, "new_displacement_rounded": null, "total_displacement_rounded": 10000, "total_displacement": 10000}, {"iso3": "ETH", "country_name": "Ethiopia", "year": 2011, "new_displacement": 50000, "new_displacement_rounded": 50000, "total_displacement_rounded": 350000, "total_displacement": 350000}, {"iso3": "GEO", "country_name": "Georgia", "year": 2011, "new_displacement": 0, "new_displacement_rounded": null, "total_displacement_rounded": 270000, "total_displacement": 270000}, {"iso3": "GTM", "country_name": "Guatemala", "year": 2011, "new_displacement": 0, "new_displacement_rounded": null, "total_displacement_rounded": null, "total_displacement": null}, {"iso3": "HRV", "country_name": "Croatia", "year": 2011, "new_displacement": 0, "new_displacement_rounded": null, "total_displacement_rounded": 2100, "total_displacement": 2059}, {"iso3": "IDN", "country_name": "Indonesia", "year": 2011, "new_displacement": 15000, "new_displacement_rounded": 15000, "total_displacement_rounded": 180000, "total_displacement": 180000}, {"iso3": "IND", "country_name": "India", "year": 2011, "new_displacement": 53000, "new_displacement_rounded": 53000, "total_displacement_rounded": 650000, "total_displacement": 650000}, {"iso3": "IRQ", "country_name": "Iraq", "year": 2011, "new_displacement": 8000, "new_displacement_rounded": 8000, "total_displacement_rounded": 2600000, "total_displacement": 2600000}, {"iso3": "ISR", "country_name": "Israel", "year": 2011, "new_displacement": 484, "new_displacement_rounded": 480, "total_displacement_rounded": null, "total_displacement": null}, {"iso3": "KEN", "country_name": "Kenya", "year": 2011, "new_displacement": 50000, "new_displacement_rounded": 50000, "total_displacement_rounded": 250000, "total_displacement": 250000}, {"iso3": "KGZ", "country_name": "Kyrgyzstan", "year": 2011, "new_displacement": 0, "new_displacement_rounded": null, "total_displacement_rounded": 67000, "total_displacement": 67000}, {"iso3": "LAO", "country_name": "Lao PDR", "year": 2011, "new_displacement": 0, "new_displacement_rounded": null, "total_displacement_rounded": null, "total_displacement": null}, {"iso3": "LBN", "country_name": "Lebanon", "year": 2011, "new_displacement": 0, "new_displacement_rounded": null, "total_displacement_rounded": 47000, "total_displacement": 47000}, {"iso3": "LBR", "country_name": "Liberia", "year": 2011, "new_displacement": 0, "new_displacement_rounded": null, "total_displacement_rounded": 23000, "total_displacement": 23000}, {"iso3": "LBY", "country_name": "Libya", "year": 2011, "new_displacement": 498000, "new_displacement_rounded": 498000, "total_displacement_rounded": 154000, "total_displacement": 154000}, {"iso3": "LKA", "country_name": "Sri Lanka", "year": 2011, "new_displacement": 0, "new_displacement_rounded": null, "total_displacement_rounded": 125000, "total_displacement": 125000}, {"iso3": "MEX", "country_name": "Mexico", "year": 2011, "new_displacement": 26500, "new_displacement_rounded": 26000, "total_displacement_rounded": 162000, "total_displacement": 161900}, {"iso3": "MKD", "country_name": "North Macedonia", "year": 2011, "new_displacement": 0, "new_displacement_rounded": null, "total_displacement_rounded": 640, "total_displacement": 644}, {"iso3": "MMR", "country_name": "Myanmar", "year": 2011, "new_displacement": 50000, "new_displacement_rounded": 50000, "total_displacement_rounded": 450000, "total_displacement": 450000}, {"iso3": "NER", "country_name": "Niger", "year": 2011, "new_displacement": 0, "new_displacement_rounded": null, "total_displacement_rounded": 11000, "total_displacement": 11000}, {"iso3": "NGA", "country_name": "Nigeria", "year": 2011, "new_displacement": 65000, "new_displacement_rounded": 65000, "total_displacement_rounded": null, "total_displacement": null}, {"iso3": "NPL", "country_name": "Nepal", "year": 2011, "new_displacement": 0, "new_displacement_rounded": null, "total_displacement_rounded": 50000, "total_displacement": 50000}, {"iso3": "PAK", "country_name": "Pakistan", "year": 2011, "new_displacement": 190000, "new_displacement_rounded": 190000, "total_displacement_rounded": 900000, "total_displacement": 900000}, {"iso3": "PER", "country_name": "Peru", "year": 2011, "new_displacement": 0, "new_displacement_rounded": null, "total_displacement_rounded": 150000, "total_displacement": 150000}, {"iso3": "PHL", "country_name": "Philippines", "year": 2011, "new_displacement": 97000, "new_displacement_rounded": 97000, "total_displacement_rounded": 46000, "total_displacement": 46000}, {"iso3": "PSE", "country_name": "Palestine", "year": 2011, "new_displacement": 1100, "new_displacement_rounded": 1100, "total_displacement_rounded": 160000, "total_displacement": 160000}, {"iso3": "RUS", "country_name": "Russia", "year": 2011, "new_displacement": 0, "new_displacement_rounded": null, "total_displacement_rounded": null, "total_displacement": null}, {"iso3": "RWA", "country_name": "Rwanda", "year": 2011, "new_displacement": 0, "new_displacement_rounded": null, "total_displacement_rounded": null, "total_displacement": null}, {"iso3": "SDN", "country_name": "Sudan", "year": 2011, "new_displacement": 115000, "new_displacement_rounded": 115000, "total_displacement_rounded": 2200000, "total_displacement": 2200000}, {"iso3": "SEN", "country_name": "Senegal", "year": 2011, "new_displacement": 0, "new_displacement_rounded": null, "total_displacement_rounded": 24000, "total_displacement": 24000}, {"iso3": "SOM", "country_name": "Somalia", "year": 2011, "new_displacement": 100000, "new_displacement_rounded": 100000, "total_displacement_rounded": 1459000, "total_displacement": 1459000}, {"iso3": "SRB", "country_name": "Serbia", "year": 2011, "new_displacement": 0, "new_displacement_rounded": null, "total_displacement_rounded": 225000, "total_displacement": 225000}, {"iso3": "SSD", "country_name": "South Sudan", "year": 2011, "new_displacement": 350000, "new_displacement_rounded": 350000, "total_displacement_rounded": 350000, "total_displacement": 350000}, {"iso3": "SYR", "country_name": "Syria", "year": 2011, "new_displacement": 156000, "new_displacement_rounded": 156000, "total_displacement_rounded": 600000, "total_displacement": 600000}, {"iso3": "TCD", "country_name": "Chad", "year": 2011, "new_displacement": 0, "new_displacement_rounded": null, "total_displacement_rounded": 126000, "total_displacement": 126000}, {"iso3": "TGO", "country_name": "Togo", "year": 2011, "new_displacement": 0, "new_displacement_rounded": null, "total_displacement_rounded": 10000, "total_displacement": 10000}, {"iso3": "THA", "country_name": "Thailand", "year": 2011, "new_displacement": 50000, "new_displacement_rounded": 50000, "total_displacement_rounded": 35000, "total_displacement": 35000}, {"iso3": "TKM", "country_name": "Turkmenistan", "year": 2011, "new_displacement": 0, "new_displacement_rounded": null, "total_displacement_rounded": 4000, "total_displacement": 4000}, {"iso3": "TLS", "country_name": "Timor-Leste", "year": 2011, "new_displacement": 1000, "new_displacement_rounded": 1000, "total_displacement_rounded": 900, "total_displacement": 900}, {"iso3": "TUR", "country_name": "T\u00fcrkiye", "year": 2011, "new_displacement": 0, "new_displacement_rounded": null, "total_displacement_rounded": 1000000, "total_displacement": 1000000}, {"iso3": "UGA", "country_name": "Uganda", "year": 2011, "new_displacement": 0, "new_displacement_rounded": null, "total_displacement_rounded": 30000, "total_displacement": 30000}, {"iso3": "UZB", "country_name": "Uzbekistan", "year": 2011, "new_displacement": 0, "new_displacement_rounded": null, "total_displacement_rounded": 3400, "total_displacement": 3400}, {"iso3": "XKX", "country_name": "Kosovo", "year": 2011, "new_displacement": 0, "new_displacement_rounded": null, "total_displacement_rounded": 18000, "total_displacement": 18000}, {"iso3": "YEM", "country_name": "Yemen", "year": 2011, "new_displacement": 175000, "new_displacement_rounded": 175000, "total_displacement_rounded": 464000, "total_displacement": 463500}, {"iso3": "ZWE", "country_name": "Zimbabwe", "year": 2011, "new_displacement": 0, "new_displacement_rounded": null, "total_displacement_rounded": null, "total_displacement": null}, {"iso3": "AFG", "country_name": "Afghanistan", "year": 2012, "new_displacement": 100400, "new_displacement_rounded": 100000, "total_displacement_rounded": 492000, "total_displacement": 492000}, {"iso3": "AGO", "country_name": "Angola", "year": 2012, "new_displacement": 0, "new_displacement_rounded": null, "total_displacement_rounded": null, "total_displacement": null}, {"iso3": "ARM", "country_name": "Armenia", "year": 2012, "new_displacement": 0, "new_displacement_rounded": null, "total_displacement_rounded": 8400, "total_displacement": 8400}, {"iso3": "AZE", "country_name": "Azerbaijan", "year": 2012, "new_displacement": 0, "new_displacement_rounded": null, "total_displacement_rounded": 600000, "total_displacement": 600336}, {"iso3": "BDI", "country_name": "Burundi", "year": 2012, "new_displacement": 0, "new_displacement_rounded": null, "total_displacement_rounded": 79000, "total_displacement": 78800}, {"iso3": "BGD", "country_name": "Bangladesh", "year": 2012, "new_displacement": 5000, "new_displacement_rounded": 5000, "total_displacement_rounded": 426000, "total_displacement": 426490}, {"iso3": "BIH", "country_name": "Bosnia and Herzegovina", "year": 2012, "new_displacement": 0, "new_displacement_rounded": null, "total_displacement_rounded": 103000, "total_displacement": 103449}, {"iso3": "CAF", "country_name": "Central African Republic", "year": 2012, "new_displacement": 106000, "new_displacement_rounded": 106000, "total_displacement_rounded": 132000, "total_displacement": 132000}, {"iso3": "CIV", "country_name": "C\u00f4te d'Ivoire", "year": 2012, "new_displacement": 24000, "new_displacement_rounded": 24000, "total_displacement_rounded": 80000, "total_displacement": 80000}, {"iso3": "COD", "country_name": "Dem. Rep. Congo", "year": 2012, "new_displacement": 1000000, "new_displacement_rounded": 1000000, "total_displacement_rounded": 2700000, "total_displacement": 2700000}, {"iso3": "COG", "country_name": "Congo", "year": 2012, "new_displacement": 0, "new_displacement_rounded": null, "total_displacement_rounded": 7800, "total_displacement": 7800}, {"iso3": "COL", "country_name": "Colombia", "year": 2012, "new_displacement": 230000, "new_displacement_rounded": 230000, "total_displacement_rounded": 5455000, "total_displacement": 5454766}, {"iso3": "CYP", "country_name": "Cyprus", "year": 2012, "new_displacement": 0, "new_displacement_rounded": null, "total_displacement_rounded": 210000, "total_displacement": 210000}, {"iso3": "DZA", "country_name": "Algeria", "year": 2012, "new_displacement": 0, "new_displacement_rounded": null, "total_displacement_rounded": null, "total_displacement": null}, {"iso3": "ERI", "country_name": "Eritrea", "year": 2012, "new_displacement": 0, "new_displacement_rounded": null, "total_displacement_rounded": 10000, "total_displacement": 10000}, {"iso3": "ETH", "country_name": "Ethiopia", "year": 2012, "new_displacement": 0, "new_displacement_rounded": null, "total_displacement_rounded": 350000, "total_displacement": 350000}, {"iso3": "GEO", "country_name": "Georgia", "year": 2012, "new_displacement": 0, "new_displacement_rounded": null, "total_displacement_rounded": 280000, "total_displacement": 279778}, {"iso3": "GTM", "country_name": "Guatemala", "year": 2012, "new_displacement": 0, "new_displacement_rounded": null, "total_displacement_rounded": null, "total_displacement": null}, {"iso3": "HRV", "country_name": "Croatia", "year": 2012, "new_displacement": 0, "new_displacement_rounded": null, "total_displacement_rounded": null, "total_displacement": null}, {"iso3": "IDN", "country_name": "Indonesia", "year": 2012, "new_displacement": 5000, "new_displacement_rounded": 5000, "total_displacement_rounded": 170000, "total_displacement": 170000}, {"iso3": "IND", "country_name": "India", "year": 2012, "new_displacement": 500000, "new_displacement_rounded": 500000, "total_displacement_rounded": 1000000, "total_displacement": 1000000}, {"iso3": "IRQ", "country_name": "Iraq", "year": 2012, "new_displacement": 0, "new_displacement_rounded": null, "total_displacement_rounded": 2100000, "total_displacement": 2100000}, {"iso3": "ISR", "country_name": "Israel", "year": 2012, "new_displacement": 0, "new_displacement_rounded": null, "total_displacement_rounded": null, "total_displacement": null}, {"iso3": "KEN", "country_name": "Kenya", "year": 2012, "new_displacement": 118000, "new_displacement_rounded": 118000, "total_displacement_rounded": 300000, "total_displacement": 300000}, {"iso3": "KGZ", "country_name": "Kyrgyzstan", "year": 2012, "new_displacement": 0, "new_displacement_rounded": null, "total_displacement_rounded": 164000, "total_displacement": 164000}, {"iso3": "LAO", "country_name": "Lao PDR", "year": 2012, "new_displacement": 0, "new_displacement_rounded": null, "total_displacement_rounded": null, "total_displacement": null}, {"iso3": "LBN", "country_name": "Lebanon", "year": 2012, "new_displacement": 0, "new_displacement_rounded": null, "total_displacement_rounded": 45000, "total_displacement": 44600}, {"iso3": "LBR", "country_name": "Liberia", "year": 2012, "new_displacement": 0, "new_displacement_rounded": null, "total_displacement_rounded": 23000, "total_displacement": 23000}, {"iso3": "LBY", "country_name": "Libya", "year": 2012, "new_displacement": 0, "new_displacement_rounded": null, "total_displacement_rounded": 50000, "total_displacement": 50000}, {"iso3": "LKA", "country_name": "Sri Lanka", "year": 2012, "new_displacement": 0, "new_displacement_rounded": null, "total_displacement_rounded": 93000, "total_displacement": 93000}, {"iso3": "MEX", "country_name": "Mexico", "year": 2012, "new_displacement": 0, "new_displacement_rounded": null, "total_displacement_rounded": 162000, "total_displacement": 161900}]}